groupe,id,nom,nom_jeune_fille,prenom1,prenom2,prenom3,sexe,ne_date,ne_date_j,ne_date_m,ne_date_a,ne_pays,ne_region,ne_ville,ne_arr,promotion_a,entree_date,entree_date_j,entree_date_m,entree_date_a,entree_rang,classe2_date,classe2_date_j,classe2_date_m,classe2_date_a,classe1_date,classe1_date_j,classe1_date_m,classe1_date_a,hors_concours_date,hors_concours_date_j,hors_concours_date_m,hors_concours_date_a,hors_concours_rang,ingenieur_date,ingenieur_date_j,ingenieur_date_m,ingenieur_date_a,remarques,ne_pays2,ne_ville2,ne_lieu,professions,profession_max,professions_pere,profession_pere_max,moyenne_2,moyenne_3,classement_2,nbre_el_2,etudes,prof_1,lieu_prof_1,prof_ens,prof_best,prof_best_dep,prof_secteur,prof_pere_ens,prof_pere,sources
agathe_poissonnier_zalc_notes,513,Audibert,NA,Jean,Georges,NA,M,10/19/1921,19,10,1921,France,Allier,Montlucon,NA,1945,NA,NA,NA,1941,NA,NA,NA,NA,NA,09/06/1946,6,9,1946,10/16/1957,16,10,1957,1,11/20/1945,20,11,1945,Ingenieur-Eleve,France,Autre ville,Autre France,ingenieur de fond - cabinets ministeriels - directeur MIFERMA - president Chambre syndicale des industries minieres - president du BRGM - de la SEREM,president,ingenieur ordinaire - officier - capitaine - directeur de la station d'essais du Comite des Houilleres de France - vice president ud Conseil general des Mines - president electricite France - president des Charonnages de France - Directeur general du Cerchar,directeur general,15.27,16.38,6,7,non,ingenieur de fond,MDPA,ingenieur de fond - cabinets ministeriels - directeur MIFERMA - president Chambre syndicale des industries minieres - president du BRGM - de la SEREM,president,BRGM,public,ingenieur ordinaire - officier - capitaine - directeur de la station d'essais du Comite des Houilleres de France - vice president ud Conseil general des Mines - president electricite France - president des Charonnages de France - Directeur general du Cerchar,directeur general,http://www.annales.org/archives/x/jeanaudibert.html
agathe_poissonnier_zalc_notes,514,De Turckheim,NA,Raoul,Edouard,Emile,M,11/24/1919,24,11,1919,France,Bas-Rhin,Niederbronn,NA,1945,NA,NA,NA,1938,NA,NA,NA,NA,NA,09/06/1946,6,9,1946,10/16/1947,16,10,1947,2,11/20/1945,20,11,1945,Ingenieur-Eleve,France,Autre ville,Autre France,ingenieur ordinaire des mines - directeur De Dietrich - administrateur-directeur Societe Nouvelle Ideal Standard - president syndical general des sondeurs de France - administrateur ecole de Chimie de Strasbourg et societe Bronzes d'Industrie - membre directoire ECAAL,directeur,maire de Strasbourg - ministre des finances - depute - president du Conseil general et College electoral de strasbourg,ministre,16.49,17.04,3,7,non,ingenieur,mines grenoble,ingenieur ordinaire des mines - directeur De Dietrich - administrateur-directeur Societe Nouvelle Ideal Standard - president syndical general des sondeurs de France - administrateur ecole de Chimie de Strasbourg et societe Bronzes d'Industrie - membre directoire ECAAL,directeur,Societe Nouvelle Ideal Standard,prive,maire de Strasbourg - ministre des finances - depute - president du Conseil general et College electoral de strasbourg,ministre,http://www.annales.org/archives/x/turckheim.html
agathe_poissonnier_zalc_notes,515,Delaume,NA,Robert,NA,NA,M,08/07/1917,7,8,1917,France,Seine,Saint-Mande,NA,1945,NA,NA,NA,1938,NA,NA,NA,NA,NA,09/06/1946,6,9,1946,10/16/1947,16,10,1947,6,07/16/1942,16,7,1942,Ingenieur-Eleve,France,Autre ville,Autre France,NA,NA,NA,NA,14.49,15.6,7,7,NA,NA,NA,NA,NA,NA,NA,NA,NA,
agathe_poissonnier_zalc_notes,516,Delavesne,NA,Yves,Louis,Gustave,M,08/30/1918,30,8,1918,France,Nievre,Ville-Langy,NA,1945,NA,NA,NA,1938,NA,NA,NA,NA,NA,09/06/1946,6,9,1946,10/16/1947,16,10,1947,1,11/20/1945,20,11,1945,Ingenieur Eleve,France,Autre ville,Autre France,ingenieur mines - adjoint au directeur des mines - directeur du BRP - directeur du gaz naturel de l'ERAP - pdg Societe nationale des gaz,pdg,NA,NA,16.9,16.54,2,7,non,ingenieur,mines,ingenieur mines - adjoint au directeur des mines - directeur du BRP - directeur du gaz naturel de l'ERAP - pdg Societe nationale des gaz,pdg,Societe nationale des gaz du sud-ouest,public,NA,NA,http://wiki.total/fr/detail/1287-yves-delavesne-directeur-du-gaz-%C3%A0-lerap-et-la-snea-vice-pr%C3%A9sident-de-sneap
agathe_poissonnier_zalc_notes,517,Fort,NA,Rene,Henri,NA,M,04/01/1919,1,4,1919,France,Aube,Troyes,NA,1945,NA,NA,NA,1939,NA,NA,NA,NA,NA,09/06/1946,6,9,1946,10/16/1947,16,10,1947,3,11/20/1945,20,11,1945,Ingenieur-Eleve,France,Autre ville,Autre France,NA,NA,NA,NA,16.95,16.38,1,7,NA,NA,NA,NA,NA,NA,NA,NA,NA,
agathe_poissonnier_zalc_notes,518,Gadilhe,NA,Paul,Marie,Albert,M,01/03/1919,3,1,1919,France,Gard,Nimes,NA,1945,NA,NA,NA,1938,NA,NA,NA,NA,NA,09/06/1946,6,9,1946,10/16/1947,16,10,1947,2,11/20/1945,20,11,1945,Ingenieur-Eleve,France,Autre ville,Autre France,ingenieur - ingenieur chef - ingenieur general - directeur federal des mines de l'Afrique Occidentale Francaise - du service des Mines - directeur general de SOGEPAR,chef,officier,officier,15.67,15.59,5,7,non,ingenieur,mines service colonial,ingenieur - ingenieur chef - ingenieur general - directeur federal des mines de l'Afrique Occidentale Francaise - du service des Mines - directeur general de SOGEPAR,chef,services des mines,public,officier,officier,http://www.annales.org/archives/x/gadilhe.html
agathe_poissonnier_zalc_notes,519,Gregory,NA,Bernard,Paul,NA,M,01/19/1919,19,1,1919,France,Dordogne,Bergerac,NA,1945,NA,NA,NA,1938,NA,NA,NA,NA,NA,09/06/1946,6,9,1946,10/16/1957,16,10,1957,4,07/16/1942,16,7,1942,Ingenieur-Eleve,France,Autre ville,Autre France,chercheur - professeur - directeur CERN,directeur,ingenieur,ingenieur,15.82,15.94,4,7,oui,chercheur,polytechnique,chercheur - professeur - directeur CERN,directeur,CNRS,public,ingenieur,ingenieur,http://www.annales.org/archives/x/gregory.html
agathe_poissonnier_zalc_notes,520,Aulard,NA,Claude,Emile,Henri,M,07/15/1919,15,7,1919,Madagascar,NA,Diego Suarez,NA,1946,NA,NA,NA,1942,NA,NA,NA,NA,NA,07/12/1947,12,7,1947,10/28/1948,28,10,1948,3,10/05/1946,5,10,1946,Ingenieur-Eleve,Colonies,Autre ville,(Ex) Colonie,ingenieur à la Societe National et de Recherche des Exploitations Petrole En Algerie - directeur à ELF,directeur,NA,NA,16.31,15.95,7,16,non,ingenieur,Algerie,ingenieur à la Societe National et de Recherche des Exploitations Petrole En Algerie - directeur à ELF,directeur,ELF France,prive,NA,NA,https://books.google.fr/books?id=YNMYz0FfpCEC&pg=PA135&lpg=PA135&dq=Claude+aulard&source=bl&ots=aW9eqcA-5V&sig=uRhJsKUsIiPVJFVH5ZxD9hcwQ7E&hl=fr&sa=X&ved=0ahUKEwj1i9Ow3ofaAhUCuBQKHViTDTUQ6AEIODAE#v=onepage&q=Claude%20aulard&f=false
agathe_poissonnier_zalc_notes,521,Besset,NA,Andre,Felix,Marie,M,03/04/1924,4,3,1924,France,Ile De France,Paris,6,1946,NA,NA,NA,1942,NA,NA,NA,NA,NA,NA,NA,NA,NA,NA,NA,NA,NA,NA,NA,NA,NA,NA,Deces Le 21/2/1947,France,Paris,Paris,NA,NA,NA,NA,NA,NA,4,16,NA,NA,NA,NA,NA,NA,NA,NA,NA,
agathe_poissonnier_zalc_notes,522,Bloch,NA,Claude,NA,NA,M,03/18/1923,18,3,1923,France,Ile De France,Paris,9,1946,NA,NA,NA,1942,NA,NA,NA,NA,NA,07/12/1947,12,7,1947,10/28/1948,28,10,1948,10,07/05/1948,5,7,1948,Ingenieur De 3?Classe,France,Paris,Paris,ingenieur - chef du service de physique matheatique - chef du service de physique theorique - directeur de la divion de la physique,directeur,NA,NA,13.45,13.75,16,16,oui,ingenieur,Commissariat a l'energie atomique,ingenieur - chef du service de physique matheatique - chef du service de physique theorique - directeur de la divion de la physique,directeur,Commissariat a l'energie atomique,public,NA,NA,http://www.annales.org/archives/x/claudebloch.html
agathe_poissonnier_zalc_notes,523,Cantenot,NA,Jean,Abel,Paul,M,09/19/1919,19,9,1919,France,Ile De France,Paris,3,1946,NA,NA,NA,1942,NA,NA,NA,NA,NA,07/12/1947,12,7,1947,10/28/1948,28,10,1948,1,10/05/1946,5,10,1946,Ingenieur-Eleve,France,Paris,Paris,adjoint au directeur de la siderurgie au ministere de l'industrie et ud commerce - ingenieur en chef Arbed - ingenieur en chef Schneider S.A - directeur adjoint - president SECIM - directeur puis president societe miniere Droitaumont-Bruville - President-directeur general de la Societe nouvelle des acieries de Pompey (1968-82) et de la Societe d’interessement et de participation - Vice-president de la Societe metallurgique de Normandie (1965-78) - Directeur general de Sacilor (1980-83) - President de Lormines (1979-85) - President (1973-85) - President d’honneur (1985) de l’Union des industries metallurgiques et minieres (1973) - President (1974-2004) - President d'honneur (depuis 2004) de l’Association pour la gestion du regime d’assurance des creances des salaries (AGS) - President (1988) puis President d'honneur (1994) du Centre d’entraide des ingenieurs,president,ingenieur,ingenieur,16.87,15.74,3,16,non,adjoint au directeur de la siderurgie,ministere de l'industrie et du commerce,adjoint au directeur de la siderurgie au ministere de l'industrie et ud commerce - ingenieur en chef Arbed - ingenieur en chef Schneider S.A - directeur adjoint - president SECIM - directeur puis president societe miniere Droitaumont-Bruville - President-directeur general de la Societe nouvelle des acieries de Pompey (1968-82) et de la Societe d’interessement et de participation - Vice-president de la Societe metallurgique de Normandie (1965-78) - Directeur general de Sacilor (1980-83) - President de Lormines (1979-85) - President (1973-85) - President d’honneur (1985) de l’Union des industries metallurgiques et minieres (1973) - President (1974-2004) - President d'honneur (depuis 2004) de l’Association pour la gestion du regime d’assurance des creances des salaries (AGS) - President (1988) puis President d'honneur (1994) du Centre d’entraide des ingenieurs,president,Union des industries metallurgiques et miniere,prive,ingenieur,ingenieur,https://www.whoswho.fr/decede/biographie-jean-cantenot_3670
agathe_poissonnier_zalc_notes,524,Collas,NA,Michel,NA,NA,M,11/02/1923,2,11,1923,France,Ile De France,Paris,17,1946,NA,NA,NA,1942,NA,NA,NA,NA,NA,07/12/1947,12,7,1947,10/28/1948,28,10,1948,1,08/08/1947,8,8,1947,Ingenieur De 3?Classe,France,Paris,Paris,ingenieur - conseiller technique du ministere de l'industrie - pantouflage Sollac - ingenieur en chef CAFL - directeur general de Creusot Loire - president commission enseignement formation du CNPF - president chambre syndicale de la siderurgie,directeur,NA,NA,17.28,17.33,2,16,non,ingenieur,minestere de l'industrie,ingenieur - conseiller technique du ministere de l'industrie - pantouflage Sollac - ingenieur en chef CAFL - directeur general de Creusot Loire - president commission enseignement formation du CNPF - president chambre syndicale de la siderurgie,directeur,Creusot-loire,prive,NA,NA,http://www.annales.org/archives/x/collas.html
agathe_poissonnier_zalc_notes,525,Delmas,NA,Rene,Louis,NA,M,12/12/1923,12,12,1923,France,Loire,Saint-Etienne,NA,1946,NA,NA,NA,1942,NA,NA,NA,NA,NA,07/12/1947,12,7,1947,10/28/1948,28,10,1948,9,10/05/1946,5,10,1946,Ingenieur-Eleve,France,Autre ville,Autre France,ingenieur en chef - president-diecteur general de la societe languedocienne de forage petroliers FORENCO - de la societe de forages en mer Neptune - Flopetrol - Schlumberger Instruments et Systemes - Schlumberger Ltd - Societe pour les ouvrages d'interet general,president-directeur,ingenieur,ingenieur,14.27,15.15,15,16,non,ingenieur en chef,mines,ingenieur en chef - president-diecteur general de la societe languedocienne de forage petroliers FORENCO - de la societe de forages en mer Neptune - Flopetrol - Schlumberger Instruments et Systemes - Schlumberger Ltd - Societe pour les ouvrages d'interet general,president-directeur,Schlumberger,prive,ingenieur,ingenieur,https://www.whoswho.fr/decede/biographie-rene-delmas_11478
agathe_poissonnier_zalc_notes,526,Deniau,NA,Henri,Paul,Lucien,M,08/29/1924,29,8,1924,France,Nord,Lille,NA,1946,NA,NA,NA,1942,NA,NA,NA,NA,NA,07/12/1947,12,7,1947,10/28/1948,28,10,1948,8,12/20/1948,20,12,1948,Ingenieur De 2?Classe,France,Autre ville,Autre France,chef du service d'Indochine - conseilleur du gouvernement du Vietnam - charge de mission à la Presidence du conseil des ministres - directeur de l’energie et de l'industrialisation de l'Algerie - charge de mission à la presidence de la Republique - vice-president de SOFIDAL - redacteur en chef des annales des mines,vice-president,polytechnicien,polytechnicien,14.63,15.63,14,16,non,ingenieur,chef du service d'indochine,chef du service d'Indochine - conseilleur du gouvernement du Vietnam - charge de mission à la Presidence du conseil des ministres - directeur de l’energie et de l'industrialisation de l'Algerie - charge de mission à la presidence de la Republique - vice-president de SOFIDAL - redacteur en chef des annales des mines,vice-president,SOFIDEL,prive,polytechnicien,polytechnicien,http://www.annales.org/archives/x/deniau.html
agathe_poissonnier_zalc_notes,527,Friedel,NA,Jacques,NA,NA,M,02/11/1921,11,2,1921,France,Ile De France,Paris,6,1946,NA,NA,NA,1942,NA,NA,NA,NA,NA,07/12/1947,12,7,1947,10/28/1948,28,10,1948,6,08/09/1948,9,8,1948,Ingenieur De 2?Classe,France,Paris,Paris,doctorant es sciences physiques - maitre de conference - professeur - fondateur Laboratoire de physique des solides,professeur,directeur,ecole des mines,16.32,16.07,6,16,non,chercheur,laboratoire Nevill Francis Mott,doctorant es sciences physiques - maitre de conference - professeur - fondateur Laboratoire de physique des solides,professeur,faculte des sciences d'Orsay,public,directeur,ecole des mines,https://fr.wikipedia.org/wiki/Jacques_Friedel
agathe_poissonnier_zalc_notes,528,Gentil,NA,Paul,NA,NA,M,12/20/1921,20,12,1921,France,Allier,Bourbon,NA,1946,NA,NA,NA,1942,NA,NA,NA,NA,NA,07/12/1947,12,7,1947,10/28/1948,28,10,1948,7,08/09/1948,9,8,1948,Ingenieur De 2?Classe,France,Autre ville,Autre France,ingenieur SNCF - chef d'arrondissement Paris-Est - chef service d'exploitation region de l'Est - directeur du mouvement - directeur general adjoint - directeur general,directeur general,NA,NA,15.22,15.85,13,16,non,ingenieur en chef,corps des mines,ingenieur SNCF - chef d'arrondissement Paris-Est - chef service d'exploitation region de l'Est - directeur du mouvement - directeur general adjoint - directeur general,directeur general,SNCF,public,NA,NA,http://www.annales.org/archives/x/paulgentil.html
agathe_poissonnier_zalc_notes,529,Granier De Lilliac,NA,Rene,Robert,Joseph,M,10/27/1919,27,10,1919,France,Loire Inferieure,Nantes,NA,1946,NA,NA,NA,1942,NA,NA,NA,NA,NA,07/12/1947,12,7,1947,10/28/1948,28,10,1948,NA,10/05/1946,5,10,1946,Ingenieur-Eleve,France,Autre ville,Autre France,ingenieur - ingenieur en chef des mines - direction des carburants du ministere de l'industrie - secretaire general Compagnie francaise des petroles - directeur - administrateur - vice president - directeur general adjoint - administrateur Compagnie francaise de raffinage - PDG - vice president - PDG TOTAL CFP,PDG,ingenieur,ingenieur,15.81,13.95,12,16,non,ingenieur,service des mines,ingenieur - ingenieur en chef des mines - direction des carburants du ministere de l'industrie - secretaire general Compagnie francaise des petroles - directeur - administrateur - vice president - directeur general adjoint - administrateur Compagnie francaise de raffinage - PDG - vice president - PDG TOTAL CFP,PDG,Total CFP,prive,ingenieur,ingenieur,http://www.annales.org/archives/x/granier.html
agathe_poissonnier_zalc_notes,530,Guilliams,NA,Jean,Paul,NA,M,11/15/1919,15,11,1919,France,Pas De Calais,Calais,NA,1946,NA,NA,NA,1942,NA,NA,NA,NA,NA,07/12/1947,12,7,1947,10/28/1948,28,10,1948,2,08/01/1943,1,8,1943,Ingenieur De 3?Classe,France,Autre ville,Autre France,ingenieur - ingenieur en chef des mines ROUEN - administrateur de societe centrale de l'uranium et des minerais et metaux radioactifs - president-directeur general de la societe des mines de Poura - directeur SAFT - gerant de la societe centrale des mines et carrieres,president,NA,NA,16.49,15.32,5,16,non,ingenieur,mines Rouen,ingenieur - ingenieur en chef des mines ROUEN - administrateur de societe centrale de l'uranium et des minerais et metaux radioactifs - president-directeur general de la societe des mines de Poura - directeur SAFT - gerant de la societe centrale des mines et carrieres,president,SAFT,prive,NA,NA,http://www.annales.org/archives/x/guilliams.html
agathe_poissonnier_zalc_notes,531,Heliot,NA,Pierre,Albert,Marie,M,05/06/1910,6,5,1910,France,Isere,Grenoble,NA,1946,NA,NA,NA,1930,NA,NA,NA,NA,NA,NA,NA,NA,NA,10/16/1947,16,10,1947,NA,03/01/1946,1,3,1946,Affecte A L'ecole Des Mines,France,Autre ville,Autre France,NA,NA,NA,NA,16.48,NA,NA,NA,NA,NA,NA,NA,NA,NA,NA,NA,NA,NA
agathe_poissonnier_zalc_notes,532,Herbin,NA,Jean,Louis,NA,M,10/23/1923,23,10,1923,France,Seine,Epinay S/Seine,NA,1946,NA,NA,NA,1942,NA,NA,NA,NA,NA,07/12/1947,12,7,1947,10/28/1948,28,10,1948,4,12/20/1948,20,12,1948,Ingenieur De 2?Classe,France,Autre ville,Autre France,NA,NA,NA,NA,16.28,16.28,8,16,NA,NA,NA,NA,NA,NA,NA,NA,NA,NA
agathe_poissonnier_zalc_notes,533,Jacot,NA,Jean,Marc,NA,M,01/19/1919,19,1,1919,France,Var,St Raphael,NA,1946,NA,NA,NA,1942,NA,NA,NA,NA,NA,07/12/1947,12,7,1947,10/28/1948,28,10,1948,5,10/05/1946,5,10,1946,Ingenieur-Eleve,France,Autre ville,Autre France,NA,NA,NA,NA,16.26,14.53,9,16,NA,NA,NA,NA,NA,NA,NA,NA,NA,NA
agathe_poissonnier_zalc_notes,534,Laplace,NA,Claude,Adolphe,Gaston,M,07/04/1923,4,7,1923,France,Ile De France,Paris,15,1946,NA,NA,NA,1943,NA,NA,NA,NA,NA,07/12/1947,12,7,1947,10/28/1948,28,10,1948,NA,08/08/1947,8,8,1947,Ingenieur De 3?Classe,France,Paris,Paris,NA,NA,NA,NA,15.87,16.7,11,16,NA,NA,NA,NA,NA,NA,NA,NA,NA,NA
agathe_poissonnier_zalc_notes,535,Lerebours-Pigeonniere,NA,Jean,Paul,Marie,M,01/22/1921,22,1,1921,France,Ille Et Vilaine,Rennes,NA,1946,NA,NA,NA,1942,NA,NA,NA,NA,NA,07/12/1947,12,7,1947,10/28/1948,28,10,1948,2,08/09/1948,9,8,1948,Ingenieur De 2?Classe,France,Autre ville,Autre France,professeur ecole des mines de saint-etienne - sous-directeur - professeur de mettalurgie Mines Paris - directeur general d'USINOR,directeur general,NA,NA,17.46,16.86,1,16,non,professeur,Ecole des mines saint-etienne,professeur ecole des mines de saint-etienne - sous-directeur - professeur de mettalurgie Mines Paris - directeur general d'USINOR,directeur general,usinor,prive,NA,NA,http://www.annales.org/archives/x/lerebours.html
agathe_poissonnier_zalc_notes,536,Marvier,NA,Louis,Joseph,Pierre,M,12/18/1923,18,12,1923,France,Correze,Tarnac,NA,1946,NA,NA,NA,1942,NA,NA,NA,NA,NA,07/12/1947,12,7,1947,10/28/1948,28,10,1948,NA,12/20/1948,20,12,1948,Ingenieur De 2?Classe,France,Autre ville,Autre France,ingenieur principal des mines - ministere de la France d'outre-mer - ingenieur en chef des mines - directeur federal des mines et de la geologie de l'Afrique occidentale francais - ministere de France d'outre-mer - adjoint au directeur general pour directeur general adjoint de la societe Pierrefitte-Auby - Administrateur Directeur general - Directeur general de la compagnie francaise de l'azote - President irecteur general de la societe Pierrefitte-Auby et de la Cofaz.,president,NA,NA,16.68,16.15,4,16,non,ingenieur,mines service colonial,ingenieur principal des mines - ministere de la France d'outre-mer - ingenieur en chef des mines - directeur federal des mines et de la geologie de l'Afrique occidentale francais - ministere de France d'outre-mer - adjoint au directeur general pour directeur general adjoint de la societe Pierrefitte-Auby - Administrateur Directeur general - Directeur general de la compagnie francaise de l'azote - President irecteur general de la societe Pierrefitte-Auby et de la Cofaz.,president,Pierrefitte-Auby et de la Cofaz,prive,NA,NA,http://www.annales.org/archives/x/marvier.html
agathe_poissonnier_zalc_notes,537,Saunal,NA,Robert,Jean,Rene,M,11/02/1920,2,11,1920,France,Cantal,Saint Flour,NA,1946,NA,NA,NA,1942,NA,NA,NA,NA,NA,07/12/1947,12,7,1947,10/28/1948,28,10,1948,4,08/01/1943,1,8,1943,Ingenieur De 3?Classe,France,Autre ville,Autre France,ingenieur des mines Madagascar - Cameroun - Nouvelle-Caledonie - au siege du Bureau Minier de la France d'Outre-mer. Ingenieur conseil à l'IRSID - Compagnie des forges et acieries de la Marine - à Firminy - dirigeant de la SITRAM.,president-directeur,NA,NA,15.99,15.43,10,16,non,ingenieur,mines Madagascar,ingenieur des mines Madagascar - Cameroun - Nouvelle-Caledonie - au siege du Bureau Minier de la France d'Outre-mer. Ingenieur conseil à l'IRSID - Compagnie des forges et acieries de la Marine - à Firminy - dirigeant de la SITRAM.,president-directeur,SITRAM,prive,NA,NA,http://www.annales.org/archives/x/saunal.html
agathe_poissonnier_zalc_notes,538,Schwartz,NA,Bertrand,NA,NA,M,02/26/1919,26,2,1919,France,Ile De France,Paris,NA,1946,NA,NA,NA,1939,NA,NA,NA,NA,NA,NA,NA,NA,NA,10/28/1948,28,10,1948,6,03/01/1946,1,3,1946,Affecte A L'ecole Des Mines,France,Paris,Paris,professeur ecole des mines de Nancy - conseiller technique aux Charbonnages de France - directeur de l'ecole des mines de Nancy - directeur du Centre universitaire de cooperation economique et sociale - conseiller technique au ministere de l'eduction nationale - conseiller à l'education permanente,directeur,chirurgien,chirurgien,15.84,16.66,NA,NA,oui,professeur,ecole des mines de Nancy,professeur ecole des mines de Nancy - conseiller technique aux Charbonnages de France - directeur de l'ecole des mines de Nancy - directeur du Centre universitaire de cooperation economique et sociale - conseiller technique au ministere de l'eduction nationale - conseiller à l'education permanente,directeur,ecole des mines de Nancy,public,chirurgien,chirurgien,https://fr.wikipedia.org/wiki/Daniel_Schwartz
agathe_poissonnier_zalc_notes,539,Aussure,NA,Paul,NA,NA,M,04/30/1922,30,4,1922,France,NA,Paris,14,1947,NA,NA,NA,1943,1,NA,NA,NA,NA,08/04/1948,4,8,1948,09/21/1949,21,9,1949,7,10/13/1949,13,10,1949,NA,France,Paris,Paris,ingenieur,ingenieur,NA,NA,14.79,15.42,11,7,non,ingenieur,mines,ingenieur,ingenieur,mines coloniales,public,NA,NA,NA
agathe_poissonnier_zalc_notes,540,Besson,NA,Maurice,Andre,NA,M,02/26/1923,26,2,1923,France,Seine Et Oise,NA,NA,1947,NA,NA,NA,1944,3,NA,NA,NA,NA,08/04/1948,4,8,1948,09/21/1949,21,9,1949,10,10/14/1949,14,10,1949,Mines Coloniales,France,Region parisienne,Region parisienne,NA,NA,entreprise familiale,entreprise familiale,14.96,15.53,9,5,non,entreprise familiale,NA,NA,NA,NA,NA,entreprise familiale,entreprise familiale,NA
agathe_poissonnier_zalc_notes,541,Boulin,NA,Philippe,Pierre,Stephane,M,06/27/1925,27,6,1925,France,NA,Neuilly Sur Seine,NA,1947,NA,NA,NA,1944,2,NA,NA,NA,NA,08/04/1948,4,8,1948,09/21/1949,21,9,1949,2,10/14/1949,14,10,1949,NA,France,Region parisienne,Region parisienne,PDG de Creusot-Loire - Jeumont-Schneider - Merlin-Gerin et Framatome - arrondissement mineralogique de Metz - groupe Empain-Schneider - groupe Generale des Eaux - president de Rexecode et de l’Afnor ,PDG Creusot-Loire,NA,NA,15.69,15.89,4,2,non,ingenieur,mines,PDG de Creusot-Loire - Jeumont-Schneider - Merlin-Gerin et Framatome - arrondissement mineralogique de Metz - groupe Empain-Schneider - groupe Generale des Eaux - president de Rexecode et de l’Afnor ,PDG Creusot-Loire,Creusot-loire,prive,NA,NA,NA
agathe_poissonnier_zalc_notes,542,Callot,NA,Francois,Gabriel,NA,M,08/28/1922,28,8,1922,France,NA,Paris,8,1947,NA,NA,NA,1942,5,NA,NA,NA,NA,08/04/1948,4,8,1948,09/21/1949,21,9,1949,1,12/20/1948,20,12,1948,Promotion Acceleree ,,,,ingenieur,ingenieur,NA,NA,15.42,14.98,6,"1(""Promo acceleree"")",non,ingenieur de seconde classe,mines coloniales,ingenieur,ingenieur,mines coloniales,public,NA,NA,NA
agathe_poissonnier_zalc_notes,543,Daunesse,NA,Claude,Pierre,NA,M,05/31/1924,31,5,1924,France,Gironde,La Teste,NA,1947,NA,NA,NA,1944,4,NA,NA,NA,NA,08/04/1948,4,8,1948,09/21/1949,21,9,1949,8,10/14/1949,14,10,1949,NA,France,Autre ville,Autre France,arrondissement mineralogique d'Ales - ingenieur en chef - chef de l'arrondissement de Clermont Ferrand - chef de l'arrondissement de Douai - Directeur des Mines,Directeur des Mines,cheminot,cheminot,15.58,15.4,5,8,non,ingenieur,arrondissement mineralogique d'Ales,arrondissement mineralogique d'Ales - ingenieur en chef - chef de l'arrondissement de Clermont Ferrand - chef de l'arrondissement de Douai - Directeur des Mines,Directeur des Mines,mines ,public,cheminot,cheminot,NA
agathe_poissonnier_zalc_notes,544,Giraud,NA,Andre,Louis,Yves,M,04/03/1925,3,4,1925,France,Gironde,Bordeaux,NA,1947,NA,NA,NA,1944,3,NA,NA,NA,NA,08/04/1948,4,8,1948,09/21/1949,21,9,1949,11,10/14/1949,14,10,1949,NA,France,Autre ville,Autre France,directeur general adjoint de l'Institut francais du petrole - directeur des carburants au ministere de l'Industrie  - vice-president de la Regie Renault - administrateur general delegue du gouvernement aupres du CEA - administrateur d'EDF  - president de la compagnie generale des matieres nucleaires - ministre de l'Industrie puis de la Defense,ministre de la defense,NA,NA,15.24,15.14,8,11,oui,ingenieur,Ecole nationale superieure du petrole,directeur general adjoint de l'Institut francais du petrole - directeur des carburants au ministere de l'Industrie  - vice-president de la Regie Renault - administrateur general delegue du gouvernement aupres du CEA - administrateur d'EDF  - president de la compagnie generale des matieres nucleaires - ministre de l'Industrie puis de la Defense,ministre de la defense,Ministere de la Defense,public,NA,NA,NA
agathe_poissonnier_zalc_notes,545,Jullien,NA,Andre,Jean,NA,M,08/25/1924,25,8,1924,France,Seine Et Oise,Vaucresson,NA,1947,NA,NA,NA,1944,9,NA,NA,NA,NA,08/04/1948,4,8,1948,09/21/1949,21,9,1949,9,10/14/1949,14,10,1949,NA,France,Region parisienne,Region parisienne,NA,NA,NA,NA,14.83,15.21,10,9,NA,ingenieur ,mines,NA,NA,NA,NA,NA,NA,NA
agathe_poissonnier_zalc_notes,546,Laffitte,NA,Pierre,Paul,NA,M,01/01/1925,1,1,1925,France,Alpes-Maritimes,Saint-Paul,NA,1947,NA,NA,NA,1944,7,NA,NA,NA,NA,08/04/1948,4,8,1948,09/21/1949,21,9,1949,7,10/14/1949,14,10,1949,NA,France,Autre ville,Autre France,Geologue au service de la Carte Geologique de France - Directeur general du Bureau de recherches geologiques - geophysiques et minieres (BRGGM) - sous-directeur - directeur puis president de l'Ecole Nationales Superieure des Mines de Paris - senateur,Senateur,artiste peintre,artiste peintre,15.27,15.44,7,6,non,ingenieur,corps des mines,Geologue au service de la Carte Geologique de France - Directeur general du Bureau de recherches geologiques - geophysiques et minieres (BRGGM) - sous-directeur - directeur puis president de l'Ecole Nationales Superieure des Mines de Paris - senateur,Senateur,senat,public,artiste peintre,artiste peintre,NA
agathe_poissonnier_zalc_notes,547,Lagrenaudie,NA,Jean,Pierre,Henry,M,05/03/1925,3,5,1925,France,Seine Et Oise,Saint-Brice Sous Foret,NA,1947,NA,NA,NA,1944,8,NA,NA,NA,NA,08/04/1948,4,8,1948,09/21/1949,21,9,1949,1,10/14/1949,14,10,1949,NA,France,Region parisienne,Region parisienne,NA,NA,NA,NA,17.14,17.05,1,1,NA,ingenieur,mines,NA,NA,NA,NA,NA,NA,NA
agathe_poissonnier_zalc_notes,548,Leblond,NA,Maurice,Andre,NA,M,02/13/1925,13,2,1925,France,Hauts De Seine,Bois-Clombes,NA,1947,NA,NA,NA,1944,11,NA,NA,NA,NA,08/04/1948,4,8,1948,09/21/1949,21,9,1949,12,10/14/1949,14,10,1949,NA,France,Autre ville,Autre France,ingenieur - directeur adjoint puis directeur des carburants au ministere de l'industrie - PDG societe de transport - fondateur du comites d'etudes petrolieres marines,PDG societe de transport,ingenieur general de la RATP,ingenieur general de la RATP,14.31,14.83,13,12,non,ingenieur,mines du minstere de l'industrie,ingenieur - directeur adjoint puis directeur des carburants au ministere de l'industrie - PDG societe de transport - fondateur du comites d'etudes petrolieres marines,PDG societe de transport,NA,prive,ingenieur general de la RATP,ingenieur general de la RATP,
agathe_poissonnier_zalc_notes,549,Malet,NA,Philippe,Raymond,NA,M,02/05/1925,5,2,1925,France,Deux-Sevres,Niort,NA,1947,NA,NA,NA,1944,4,NA,NA,NA,NA,08/04/1948,4,8,1948,09/21/1949,21,9,1949,4,10/14/1949,14,10,1949,NA,France,Autre ville,Autre France,Conseiller technique au cabinet du ministre de l’Industrie - Adjoint au directeur de la siderurgie - Charge de mission au secretariat general de la Presidence de la Republique - Rapporteur general de la Commission de la siderurgie au plan - Professeur de siderurgie à l’Ecole nationale superieure des mines de Paris - Directeur des participations - Directeur general adjoint - Directeur general - Administrateur et President-directeur general de la Compagnie financiere de Suez - de la Compagnie des mines de Huaron et de la Compagnie de Mokta - President-directeur general de la Societe alsacienne de participations industrielles (Alspi) - de la Societe Lille-Bonnieres et Colombes  - du Comptoir Lyon-Alemand-Louyot et de la Compagnie des salins du Midi et des salines de l’Est - Vice-president de Beghin-Say - de la Lyonnaise des eaux - Administrateur de Pont-à-Mousson puis Saint-Gobain - de la Scac - de la Compagnie de Suez - de Valeo  - de Bouygues de la Compagnie financiere du groupe Victoire  - de la Societe generale de Belgique - Membre du conseil de surveillance de Suez-Lyonnaise des eaux - President d'honneur de Finalac et de la Compagnie des Salins du Midi ,President-directeur general de la Compagnie financiere de Suez,ingenieur en chef des ponts et chaussees,ingenieur en chef des ponts et chaussees,16.21,15.73,2,4,non,ingenieur,mines de Valenciennes,Conseiller technique au cabinet du ministre de l’Industrie - Adjoint au directeur de la siderurgie - Charge de mission au secretariat general de la Presidence de la Republique - Rapporteur general de la Commission de la siderurgie au plan - Professeur de siderurgie à l’Ecole nationale superieure des mines de Paris - Directeur des participations - Directeur general adjoint - Directeur general - Administrateur et President-directeur general de la Compagnie financiere de Suez - de la Compagnie des mines de Huaron et de la Compagnie de Mokta - President-directeur general de la Societe alsacienne de participations industrielles (Alspi) - de la Societe Lille-Bonnieres et Colombes  - du Comptoir Lyon-Alemand-Louyot et de la Compagnie des salins du Midi et des salines de l’Est - Vice-president de Beghin-Say - de la Lyonnaise des eaux - Administrateur de Pont-à-Mousson puis Saint-Gobain - de la Scac - de la Compagnie de Suez - de Valeo  - de Bouygues de la Compagnie financiere du groupe Victoire  - de la Societe generale de Belgique - Membre du conseil de surveillance de Suez-Lyonnaise des eaux - President d'honneur de Finalac et de la Compagnie des Salins du Midi ,President-directeur general de la Compagnie financiere de Suez,Compagnie financiere de Suez,prive,ingenieur en chef des ponts et chaussees,ingenieur en chef des ponts et chaussees,
agathe_poissonnier_zalc_notes,550,Messiah,NA,Albert,NA,NA,M,09/13/1921,13,9,1921,France,Alpes-Maritimes,Nice,NA,1947,NA,NA,NA,1940,2,NA,NA,NA,NA,08/04/1948,4,8,1948,09/21/1949,21,9,1949,2,07/05/1948,5,7,1948,NA,France,Autre ville,Autre France,Directeur du departement de la physique nucleaire,Directeur du departement de la physique nucleaire,industriel,industriel,NA,14.07,14,"2(""Promo acceleree)",oui,chercheur,CEA,Directeur du departement de la physique nucleaire,Directeur du departement de la physique nucleaire,Departement de la physique nucleaire,public,industriel,industriel,NA
agathe_poissonnier_zalc_notes,551,Michel,NA,Rene,Gaston,Fernand,M,08/31/1923,31,8,1923,France,Hautes-Alpes,Eourres,NA,1947,NA,NA,NA,1944,10,NA,NA,NA,NA,08/04/1948,4,8,1948,09/21/1949,21,9,1949,3,10/14/1949,14,10,1949,NA,France,Autre ville,Autre France,NA,NA,NA,NA,15.87,15.78,3,3,NA,ingenieur,mines,NA,NA,NA,NA,NA,NA,NA
agathe_poissonnier_zalc_notes,552,Stahl,NA,Alain,Aloys,NA,M,02/05/1926,5,2,1926,France,NA,Paris,15,1947,NA,NA,NA,1944,3,NA,NA,NA,NA,08/04/1948,4,8,1948,09/21/1949,21,9,1949,10,10/14/1949,14,10,1949,NA,France,Paris,Paris,Directeur technique de Pechiney -directeur general adjoint de la division chimie fine de Rhônes Poulenc - directeur general CDF-Chimie,direcetur general CDF-Chimie,NA,NA,14.53,15.2,10,12,non,ingenieur,mines du minstere de l'industrie,Directeur technique de Pechiney -directeur general adjoint de la division chimie fine de Rhônes Poulenc - directeur general CDF-Chimie,direcetur general CDF-Chimie,CDF-Chimie,prive,NA,NA,NA
agathe_poissonnier_zalc_notes,553,Achille,NA,Jean-Claude,Francois,NA,M,06/06/1926,6,6,1926,France,Lot Et Garonne,Agen,NA,1948,NA,NA,NA,1945,3,NA,NA,NA,NA,08/10/1949,10,8,1949,08/24/1950,24,8,1950,6,09/22/1950,22,9,1950,NA,France,Autre ville,Autre France,poste dans des cabinets ministeriels - directeur de cabinet - directeur à la direction generale de Gaz de France,directeur à la direction generale de Gaz de France,officier d'infanterie,officier d'infanterie,16.87,16.31,3,6,non,ingenieur dans l'administration,mines de Blanzy,poste dans des cabinets ministeriels - directeur de cabinet - directeur à la direction generale de Gaz de France,directeur à la direction generale de Gaz de France,Gaz de France,public,officier d'infanterie,officier d'infanterie,NA
agathe_poissonnier_zalc_notes,554,Caillou,NA,Roger,Leon,NA,M,01/01/1927,1,1,1927,France,Ile De France Paris,NA,7,1948,NA,NA,NA,1945,4,NA,NA,NA,NA,08/10/1949,10,8,1949,08/24/1950,24,8,1950,8,09/22/1950,22,9,1950,NA,France,Paris,Paris,directeur de l'ecole des mines de Douai,directeur de l'ecole des mines de Douai,NA,NA,15.92,15.68,9,8,non,ingenieur,mines,directeur de l'ecole des mines de Douai,directeur de l'ecole des mines de Douai,ecole des mines de Douai,public,NA,NA,NA
agathe_poissonnier_zalc_notes,555,Clairet,NA,Jean,Marcel,NA,M,07/10/1927,10,7,1927,France,Gard,La Grand'combe,NA,1948,NA,NA,NA,1945,9,NA,NA,NA,NA,08/10/1949,10,8,1949,08/24/1950,24,8,1950,10,09/22/1950,22,9,1950,NA,France,Autre ville,Autre France,direction des mines et de la geologie de l'Afrique equatoriale Francaise - administration metropolitaine à Saint-Etienne,direction des mines et de la geologie de l'Afrique equatoriale Francaise,NA,NA,15.72,15.13,10,10,non,ingenieur,mines coloniales,direction des mines et de la geologie de l'Afrique equatoriale Francaise - administration metropolitaine à Saint-Etienne,direction des mines et de la geologie de l'Afrique equatoriale Francaise,mines de l'Afrique equatoriale Francaise,public,NA,NA,NA
agathe_poissonnier_zalc_notes,556,Deberge,NA,Jean-Baptiste,Laurent,NA,M,06/18/1923,18,6,1923,France,Basses-Pyrenees,Lahontan,NA,1948,NA,NA,NA,1945,15,NA,NA,NA,NA,07/13/1950,13,7,1950,08/31/1951,31,8,1951,1,09/06/1951,6,9,1951,NA,France,Autre ville,Autre France,NA,NA,NA,NA,NA,NA,NA,Redoublant,non,ingenieur,mines coloniales,NA,NA,NA,NA,NA,NA,NA
agathe_poissonnier_zalc_notes,557,Deny,NA,Louis,Henri,Pierre Marie,M,10/08/1924,8,10,1924,France,Ile De France Paris,NA,5,1948,NA,NA,NA,1945,1,NA,NA,NA,NA,08/10/1949,10,8,1949,08/24/1950,24,8,1950,3,09/22/1950,22,9,1950,NA,France,Paris,Paris,adjoint au directeurdu Bureau du recherche du petrole - ingenieur à la Compagnie francaise de petrole - directeur de Total Lybie - directeur de Total Belgique et Pays-Bas - PDG de Total compagnie francaise de distribution - numero deux de total,numero deux de Total,administrateur de l'Ecole nationale des langues orientales,administrateur de l'Ecole nationale des langues orientales,NA,NA,NA,NA,non,ingenieur,arrondissement mineralogique de Strasbourg,adjoint au directeurdu Bureau du recherche du petrole - ingenieur à la Compagnie francaise de petrole - directeur de Total Lybie - directeur de Total Belgique et Pays-Bas - PDG de Total compagnie francaise de distribution - numero deux de total,numero deux de Total,Total CFP,prive,administrateur de l'Ecole nationale des langues orientales,administrateur de l'Ecole nationale des langues orientales,
agathe_poissonnier_zalc_notes,558,Gouni,NA,Lucien,NA,NA,M,10/16/1925,16,10,1925,France,Cantal,Laroquebrou,NA,1948,NA,NA,NA,1945,5,NA,NA,NA,NA,08/10/1949,10,8,1949,08/24/1950,24,8,1950,4,09/22/1950,22,9,1950,NA,France,Autre ville,Autre France,Ingenieur au service du gaz - direction du gaz et de l'electricite ministere de l'industrie - Chef du service de l'energie et directeur adjoint du CERMAP du Commissariat general du plan - Directeur à l'Office national industriel de l'azote - Membre du directoire societe APC groupe EMC - Controleur general - direction de la distribution EGDF - Directeur adjoint - chef du service des etudes economiques generales EDF - Directeur adjoint charge de mission EDF - Vice-president de l'association Euro Energy Int,chef du service des etudes economiques generales EDF,gendarme,gendarme,16.49,16.59,6,4,non,ingenieur,mines du sous-arrondissement de Bethunes,Ingenieur au service du gaz - direction du gaz et de l'electricite ministere de l'industrie - Chef du service de l'energie et directeur adjoint du CERMAP du Commissariat general du plan - Directeur à l'Office national industriel de l'azote - Membre du directoire societe APC groupe EMC - Controleur general - direction de la distribution EGDF - Directeur adjoint - chef du service des etudes economiques generales EDF - Directeur adjoint charge de mission EDF - Vice-president de l'association Euro Energy Int,chef du service des etudes economiques generales EDF,EDF,public,gendarme,gendarme,NA
agathe_poissonnier_zalc_notes,559,Mermet,NA,Maurice,Louis,NA,M,08/15/1926,15,8,1926,France,Bas-Rhin,Strasbourg,NA,1948,NA,NA,NA,1945,6,NA,NA,NA,NA,08/10/1949,10,8,1949,08/24/1950,24,8,1950,2,09/22/1950,22,9,1950,NA,France,Autre ville,Autre France,direction generale des mines de Potasse d'Alsace - directeur adjoint puis president du directoire - directeur general de Marine-Wendel - directeur de l'ecole des mines de saint Etienne,directeur de l'ecole des mines de saint Etienne,NA,NA,17.6,17.19,1,2,non,ingenieur,arrondissement mineralogique de Metz,direction generale des mines de Potasse d'Alsace - directeur adjoint puis president du directoire - directeur general de Marine-Wendel - directeur de l'ecole des mines de saint Etienne,directeur de l'ecole des mines de saint Etienne,ecole des mines de Saint Etienne,public,NA,NA,NA
agathe_poissonnier_zalc_notes,560,Morin,NA,Francois,Pierre,NA,M,09/13/1925,13,9,1925,France,Seine,Orly,NA,1948,NA,NA,NA,1945,1,NA,NA,NA,NA,08/10/1949,10,8,1949,08/24/1950,24,8,1950,1,09/22/1950,22,9,1950,Division A? Dates D'entree A X? Infos Classe 2? Classe 1/11? Nomme Ingegneur Par Arrete?,France,Region parisienne,Region parisienne,,Directeur general adjoint Banque de Paris - directeur general de Paribas,NA,NA,17.37,17.55,2,1,non,ingenieur de fond,Bruay des Houilleres du Nors Pas De Calais,,Directeur general adjoint Banque de Paris - directeur general de Paribas,directeur general de Paribas,prive,NA,NA,NA
agathe_poissonnier_zalc_notes,561,Naudet,NA,Roger,Georges,Desire,M,02/03/1926,3,2,1926,France,Ile De France Paris,NA,15,1948,NA,NA,NA,1945,2,NA,NA,NA,NA,08/10/1949,10,8,1949,08/24/1950,24,8,1950,11,09/22/1950,22,9,1950,NA,France,Paris,Paris,ingenieur à Charbonnage de France - ingenieur à Commissariat à l'energie atomique - chercheur sur les energies fossiles,chercheur,NA,NA,15.71,15.01,11,11,non,ingenieur,mines coloniales,ingenieur à Charbonnage de France - ingenieur à Commissariat à l'energie atomique - chercheur sur les energies fossiles,chercheur,NA,NA,NA,NA,NA
agathe_poissonnier_zalc_notes,562,Osselet,NA,Armand,Edmond,Olivier,M,04/30/1924,30,4,1924,France,Loiret,Orleans,NA,1948,NA,NA,NA,1945,5,NA,NA,NA,NA,08/10/1949,10,8,1949,07/31/1951,31,7,1951,4,09/06/1951,6,9,1951,Nomme Eleve De 1ere Classe A Nouveau Le 13/7/1950,France,Autre ville,Autre France,NA,NA,NA,NA,12.77,Redoublant,12,Redoublant,non,ingenieur,mines,NA,NA,NA,NA,NA,NA,NA
agathe_poissonnier_zalc_notes,563,Rastoul,NA,Henri,Leon,Louis,M,03/04/1924,4,3,1924,France,Herault,Beziers,NA,1948,NA,NA,NA,1945,9,NA,NA,NA,NA,08/10/1949,10,8,1949,08/24/1950,24,8,1950,7,09/22/1950,22,9,1950,NA,France,Autre ville,Autre France,NA,NA,NA,NA,16.15,16.07,8,7,non,ingenieur,mines coloniales,NA,NA,NA,NA,NA,NA,NA
agathe_poissonnier_zalc_notes,564,Reboux,NA,Paul,Louis,Roger,M,06/17/1924,17,6,1924,France,Vienne,Vandeuvre Du Poitou,NA,1948,NA,NA,NA,1945,7,NA,NA,NA,NA,08/10/1949,10,8,1949,08/24/1950,24,8,1950,5,09/22/1950,22,9,1950,NA,France,Autre ville,Autre France,directeur du centre energetique des Mines,directeur du centre energetique des mines - prof de Thermique et de mecanique des fluides,NA,NA,16.39,16.53,7,5,NA,ingenieur,mines,directeur du centre energetique des Mines,directeur du centre energetique des mines - prof de Thermique et de mecanique des fluides,directeur du centre energetique des mines,public,NA,NA,NA
agathe_poissonnier_zalc_notes,565,Rey,NA,Jacques,Eugene,NA,M,07/02/1926,2,7,1926,France,Province Alpes Cote D'azur,Marseille,NA,1948,NA,NA,NA,1945,2,NA,NA,NA,NA,08/10/1949,10,8,1949,08/24/1950,24,8,1950,9,09/22/1950,22,9,1950,NA,France,Autre ville,Autre France,NA,NA,NA,NA,16.55,15.64,5,9,non,ingenieur,mines ,NA,NA,NA,NA,NA,NA,NA
agathe_poissonnier_zalc_notes,566,Fournier,NA,Georges,Eugene,NA,M,04/07/1927,7,4,1927,France,Vaucluse,Avignon,NA,1949,NA,NA,NA,1946,NA,NA,NA,NA,NA,07/13/1950,13,7,1950,07/31/1951,31,7,1951,10,09/06/1951,6,9,1951,NA,France,Autre ville,Autre France,Chef de service au ministere de l’Industrie - DG de la Societe africaine de raffinage - Dircecteur “Outre-mer” de l’Union generale des petroles - Directeur du bureau Economies d’energie de la Societe nationale Elf-Aquitaine,Directeur du bureau Economies d’energie de la Societe nationale Elf-Aquitaine,NA,NA,14.96,14.6,9,11,Pas de poursuite d'etudes,Chef de service au ministere de l’Industrie,Ministere de l'Industrie et du Commerce ,Chef de service au ministere de l’Industrie - DG de la Societe africaine de raffinage - Dircecteur “Outre-mer” de l’Union generale des petroles - Directeur du bureau Economies d’energie de la Societe nationale Elf-Aquitaine,Directeur du bureau Economies d’energie de la Societe nationale Elf-Aquitaine,NA,Public,NA,NA,http://atee.fr
agathe_poissonnier_zalc_notes,567,Gall,NA,Jacques,NA,NA,M,06/14/1927,14,6,1927,France,Savoie,Saint-Marcel,NA,1949,NA,NA,NA,1946,NA,NA,NA,NA,NA,07/13/1950,13,7,1950,07/31/1951,31,7,1951,3,09/06/1951,6,9,1951,NA,France,Autre ville,Autre France,NA,NA,NA,NA,16.37,15.29,2,11,NA,NA,NA,NA,NA,NA,NA,NA,NA,NA
agathe_poissonnier_zalc_notes,568,Goux,NA,Claude,Maurice,NA,M,04/27/1925,27,4,1925,France,Saone Et Loire,Saint-Marcel,NA,1949,NA,NA,NA,1946,4,NA,NA,NA,NA,07/13/1950,13,7,1950,10/08/1951,8,10,1951,5,10/08/1951,8,10,1951,NA,France,Autre ville,Autre France,Chercheur au sein du laboratoire de l'Ecole des Mines de Saint Etienne,Chercheur,NA,NA,15.26,16,7,11,Pas de poursuite d'etudes,Professeur de metallurgie à l'Ecole des Mines,Saint Etienne,Chercheur au sein du laboratoire de l'Ecole des Mines de Saint Etienne,Chercheur,NA,Public,NA,NA,fiche institutionnelle
agathe_poissonnier_zalc_notes,569,Halna Du Fretay,NA,Amaury,NA,NA,M,08/30/1926,30,8,1926,France,Cotes Du Nord,Saint-Brieuc,NA,1949,NA,NA,NA,1946,NA,NA,NA,NA,NA,07/13/1950,13,7,1950,07/31/1951,31,7,1951,11,09/06/1951,6,9,1951,NA,France,Autre ville,Autre France,Ingenieur dans l'entrprise Kuhlmann - PDG des produits chimiques Ugine-Kuhlmann - PDG du groupe Labinal,PDG de Labinal,NA,NA,13.95,14.3,11,11,Pas de poursuite d'etudes,Ingenieur dans l'entrprise Kuhlmann,NA,Ingenieur dans l'entrprise Kuhlmann - PDG des produits chimiques Ugine-Kuhlmann - PDG du groupe Labinal,PDG de Labinal,NA,Prive,NA,NA,Les Echos
agathe_poissonnier_zalc_notes,570,Kirchner,NA,Maurice,Dominique,NA,M,10/31/1927,31,10,1927,France,Seine-Inferieure,Rouen,NA,1949,NA,NA,NA,1946,6,NA,NA,NA,NA,07/13/1950,13,7,1950,07/31/1951,31,7,1951,9,09/06/1951,6,9,1951,NA,France,Autre ville,Autre France,Ingenieur des mines - poste en Ministere,Poste en Ministere,Polytechnicien inspecteur general des Ponts et ChausseesInspecteur general des Ponts et Chaussees,,14.77,15.03,10,11,NA,Ingenieur des mines,NA,Ingenieur des mines - poste en Ministere,Poste en Ministere,NA,Public,Polytechnicien inspecteur general des Ponts et ChausseesInspecteur general des Ponts et Chaussees,,geneanet.org
agathe_poissonnier_zalc_notes,571,Levy,NA,Raymond,Haim,NA,M,06/28/1927,28,6,1927,France,Ile-De-France,Paris,9,1949,NA,NA,NA,1946,1,NA,NA,NA,NA,07/06/1951,6,7,1951,07/31/1952,31,7,1952,1,10/07/1952,7,10,1952,Conge D'un An Aux Usa 1949-1950 Et Retour A L'ecole En Octobre 1950,France,Paris,Paris,Ingenieur dans les Houilleres - Ingenieur petrolier - VP d'ELF-Aquitaine - PDG d'Unisor - DG de Regie Renault - P du Cdr - VP du Conseil General des Mines,DG Regie renault - VP du Conseil General des Mines,Journaliste,Journaliste,17.96,17.4,1,11,MIT,Ingenieur dans les Houilleres,,Ingenieur dans les Houilleres - Ingenieur petrolier - VP d'ELF-Aquitaine - PDG d'Unisor - DG de Regie Renault - P du Cdr - VP du Conseil General des Mines,DG Regie renault - VP du Conseil General des Mines,NA,NA,Journaliste,Journaliste,http://www.lalettresepharade.fr
agathe_poissonnier_zalc_notes,572,Montjoie,NA,Rene,Francois,Marie,M,09/29/1926,29,9,1926,France,Nord,Lille,NA,1949,NA,NA,NA,1946,3,NA,NA,NA,NA,07/13/1950,13,7,1950,07/31/1951,31,7,1951,2,09/06/1951,6,9,1951,NA,France,Autre ville,Autre France,Chef de service de la Siderurgie au Ministere du Commerce - Conseiller technique au Cabinet du Premier Ministre - administrateur d'Electrecite France - Commissaire General du Plan - vice-PDG d'EDF,,NA,NA,16.27,15.95,3,11,Universite de Chicago,Chef de service de la Siderurgie au Ministere du Commerce,Ministere du Commerce,Chef de service de la Siderurgie au Ministere du Commerce - Conseiller technique au Cabinet du Premier Ministre - administrateur d'Electrecite France - Commissaire General du Plan - vice-PDG d'EDF,,NA,NA,NA,NA,NA
agathe_poissonnier_zalc_notes,573,Pichon,NA,Claude,Jean,Marie,M,08/21/1926,21,8,1926,France,Ile-De-France,Paris,14,1949,NA,NA,NA,1946,5,NA,NA,NA,NA,07/13/1950,13,7,1950,07/31/1951,31,7,1951,7,09/06/1951,6,9,1951,NA,France,Paris,Paris,NA,NA,NA,NA,15.9,15.02,5,11,NA,NA,NA,NA,NA,NA,NA,NA,NA,NA
agathe_poissonnier_zalc_notes,574,Rebiere,NA,Andre,Emile,NA,M,04/24/1926,24,4,1926,France,Ile-De-France,Neuilly S/Seine,NA,1949,NA,NA,NA,1946,2,NA,NA,NA,NA,07/13/1950,13,7,1950,07/31/1951,31,7,1951,8,09/06/1951,6,9,1951,NA,France,Region parisienne,Region parisienne,Ingenieur des mines - Enseignant à l'Ecole technique des Mines - Chef de service au Ministere de l'industrie - Conseiller du Ministere du Travail,Chef de service au ministere de l'industrie,ingenieur de la Ville de Paris,ingenieur de la Ville de Paris,15.31,15.35,6,11,Pas de poursuite d'etudes,Ingenieur des mines,Saint Etienne,Ingenieur des mines - Enseignant à l'Ecole technique des Mines - Chef de service au Ministere de l'industrie - Conseiller du Ministere du Travail,Chef de service au ministere de l'industrie,NA,Public,ingenieur de la Ville de Paris,ingenieur de la Ville de Paris,fiche institutionnelle
agathe_poissonnier_zalc_notes,575,Servant,NA,Jean,Etienne,Edmond,M,06/12/1925,12,6,1925,France,Vienne,Chenevelles,NA,1949,NA,NA,NA,1946,NA,NA,NA,NA,NA,07/13/1950,13,7,1950,07/31/1951,31,7,1951,6,09/06/1951,6,9,1951,NA,France,Autre ville,Autre France,Directeur du Service central de sûrete des installations nucleaires ,Directeur du Service central de sûrete des installations nucleaires ,NA,NA,15.2,15.92,8,11,NA,NA,NA,Directeur du Service central de sûrete des installations nucleaires ,Directeur du Service central de sûrete des installations nucleaires ,NA,Public,NA,NA,Armatte
agathe_poissonnier_zalc_notes,576,Berthomieu,NA,Louis,Henri,Simon,M,08/08/1927,8,8,1927,France,Herault,Adge,NA,1950,10/09/1950,9,10,1950,16,NA,NA,NA,NA,07/06/1951,6,7,1951,07/31/1952,31,7,1952,4,09/15/1952,15,9,1952,NA,France,Autre ville,Autre France,NA,NA,NA,NA,15.69,15.65,4,10,NA,NA,NA,NA,NA,NA,NA,NA,NA,NA
agathe_poissonnier_zalc_notes,577,Meo,NA,Jean,Alfred,Emile Edmond,M,04/26/1927,26,4,1927,France,Cote D'or,Vosne Romanee,NA,1950,10/09/1950,9,10,1950,8,NA,NA,NA,NA,07/06/1951,6,7,1951,07/31/1952,31,7,1952,8,09/15/1952,15,9,1952,NA,France,Autre ville,Autre France,Ingenieur des mines - Professeur à l'Institut Industriel du Nord - Conseiller technique au Ministere des Finances - Charge de Mission au Cabinet du General de Gaulle - Charge de Mission au Secretariat General de la Presidence de la Republique - DG de l'U.G.P. - DG Adjoint de la Direction Raffinage Distribution de Elf-ERAP - Directeur General de SOCANTAR - Administrateur d'Elf Distribution - DG delegue de France Education - depute europeen,Depute europeen,NA,NA,15.32,14.85,8,10,Pas de poursuite d'etudes,Ingenieur des mines dans les Houilleres,Bassin de Lorraine,Ingenieur des mines - Professeur à l'Institut Industriel du Nord - Conseiller technique au Ministere des Finances - Charge de Mission au Cabinet du General de Gaulle - Charge de Mission au Secretariat General de la Presidence de la Republique - DG de l'U.G.P. - DG Adjoint de la Direction Raffinage Distribution de Elf-ERAP - Directeur General de SOCANTAR - Administrateur d'Elf Distribution - DG delegue de France Education - depute europeen,Depute europeen,NA,Public,NA,NA,Wikipedia
agathe_poissonnier_zalc_notes,578,Pelissonnier,NA,Hubert,NA,NA,M,04/16/1926,16,4,1926,France,Cote D'or,Dijon,NA,1950,10/09/1950,9,10,1950,11,NA,NA,NA,NA,07/06/1951,6,7,1951,07/31/1952,31,7,1952,6,09/15/1952,15,9,1952,NA,France,Autre ville,Autre France,Professeur à l'Ecole du Genie rural - Professeur à l'Ecole Nationale des Ponts et Chaussees - Professeur à l'Ecole des Mines de Paris - directeur du centre de geologie miniere,Directeur du centre de geologie miniere,Polytechnicien ingenieur des Ponts et Chaussees,Ingenieur des Ponts et Chaussees,14.94,16.05,6,10,Ecole nationale Superieure des Mines de Paris - Section d'Etudes Geologiques et minieres,Direction du Service de la carte geologique de France,Ministere de l'Industrie et du Commerce ,Professeur à l'Ecole du Genie rural - Professeur à l'Ecole Nationale des Ponts et Chaussees - Professeur à l'Ecole des Mines de Paris - directeur du centre de geologie miniere,Directeur du centre de geologie miniere,NA,Public,Polytechnicien ingenieur des Ponts et Chaussees,Ingenieur des Ponts et Chaussees,fiche institutionnelle - geneanet.org - wikipedia
agathe_poissonnier_zalc_notes,579,Petitmengin,NA,Jacques,Etienne,Andre,M,01/19/1928,19,1,1928,France,Paris,Paris,NA,1950,10/09/1950,9,10,1950,5,NA,NA,NA,NA,07/06/1951,6,7,1951,07/31/1952,31,7,1952,6,09/15/1952,15,9,1952,NA,France,Paris,Paris,ingenieur des Mines au BRP - directeur industriel et commercial de SN Repal - Directeur de la chimie des charbonnages - President du Directoire de la Societe chimique des charbonnages - DG des Charbonnages de France - PDG de Gazocean,DG des Charbonnages de France,NA,NA,15.54,15.45,6,10,NA,Stage de chantier,NA,ingenieur des Mines au BRP - directeur industriel et commercial de SN Repal - Directeur de la chimie des charbonnages - President du Directoire de la Societe chimique des charbonnages - DG des Charbonnages de France - PDG de Gazocean,DG des Charbonnages de France,NA,Public,NA,NA,Archives Nationales
agathe_poissonnier_zalc_notes,580,Poirier,NA,Jean-Pierre,NA,NA,M,10/11/1926,11,10,1926,France,S Et M,Fontainebleau,NA,1950,10/09/1950,9,10,1950,21,NA,NA,NA,NA,07/06/1951,6,7,1951,07/31/1952,31,7,1952,3,09/15/1952,15,9,1952,NA,France,Region parisienne,Region parisienne,NA,NA,NA,NA,NA,NA,NA,NA,NA,NA,NA,NA,NA,NA,NA,NA,NA,NA
agathe_poissonnier_zalc_notes,581,Rauline,NA,Bernard,Henri,Raymond,M,09/04/1926,4,9,1926,France,Paris,Paris,6,1950,10/09/1950,9,10,1950,13,NA,NA,NA,NA,07/06/1951,6,7,1951,07/31/1952,31,7,1952,9,09/15/1952,15,9,1952,NA,France,Paris,Paris,Ingenieur des mines - Chef du service du gaz à la direction du gaz et de l’electricite et Commissaire du gouvernement adjoint de Gaz de France - Directeur des industries chimiques - Directeur des industries chimiques - textiles et diverses au ministere du Developpement industriel et scientifique - Membre du conseil d’administration des Charbonnages de France - Administrateur de l’Office national des forets  - Commissaire du gouvernement pres l’Entreprise miniere et chimique et la Societe chimique des charbonnages - Ingenieur general des mines - Directeur de cabinet au Ministere du Developpement industriel et scientifique - DG de Beghin-Say SA - PDG de la Sodes - PDG de Papeterie Beghin-Corbehem - President du conseil de surveillance (1988-90) - PDG de Bois et sciage de Sougy,,Docteur en droit,Docteur en droit,14.96,15.15,9,10,NA,NA,NA,Ingenieur des mines - Chef du service du gaz à la direction du gaz et de l’electricite et Commissaire du gouvernement adjoint de Gaz de France - Directeur des industries chimiques - Directeur des industries chimiques - textiles et diverses au ministere du Developpement industriel et scientifique - Membre du conseil d’administration des Charbonnages de France - Administrateur de l’Office national des forets  - Commissaire du gouvernement pres l’Entreprise miniere et chimique et la Societe chimique des charbonnages - Ingenieur general des mines - Directeur de cabinet au Ministere du Developpement industriel et scientifique - DG de Beghin-Say SA - PDG de la Sodes - PDG de Papeterie Beghin-Corbehem - President du conseil de surveillance (1988-90) - PDG de Bois et sciage de Sougy,,NA,Directeur de cabinet au Ministere du Developpement industriel et scientifique,Docteur en droit,Docteur en droit,Who's Who
agathe_poissonnier_zalc_notes,582,Rutman,NA,Gilbert,NA,NA,M,09/07/1928,7,9,1928,France,Seine Et Oise,Baillet,NA,1950,10/09/1950,9,10,1950,4,NA,NA,NA,NA,07/06/1951,6,7,1951,07/31/1952,31,7,1952,2,09/15/1952,15,9,1952,NA,France,Region parisienne,Region parisienne,Ingenieur des mines - Ingenieur à la Societe Nationale des Petroles d'Aquitaine - VP et DG executif de Elf Aquitaine,DG executif de Elf Aquitaine,NA,NA,16.37,16.7,2,10,Pas de poursuite d'etudes,Ingenieur des mines,Arrondissement mineralogique de Strasbourg,Ingenieur des mines - Ingenieur à la Societe Nationale des Petroles d'Aquitaine - VP et DG executif de Elf Aquitaine,DG executif de Elf Aquitaine,NA,Public,NA,NA,fiche institutionnelle
agathe_poissonnier_zalc_notes,583,Sore,NA,Jean-Claude,NA,NA,M,09/13/1927,13,9,1927,France,Gironde,La Teste De Buch,NA,1950,10/09/1950,9,10,1950,6,NA,NA,NA,NA,10/17/1951,17,10,1951,07/31/1952,31,7,1952,4,09/15/1952,15,9,1952,NA,France,Autre ville,Autre France,Ingenieur des mines - Directeur des mines - Directeur de la technologie de l'environnement industriel et des mines,Directeur de la technologie de l'environnement industriel et des mines,NA,NA,15.39,15.9,4,10,NA,NA,NA,Ingenieur des mines - Directeur des mines - Directeur de la technologie de l'environnement industriel et des mines,Directeur de la technologie de l'environnement industriel et des mines,NA,Public,NA,NA,annales.org
agathe_poissonnier_zalc_notes,584,Thibierge,NA,Michel,Raymond,NA,M,02/14/1929,14,2,1929,France,Nord,Douai,NA,1950,10/09/1950,9,10,1950,15,NA,NA,NA,NA,07/06/1951,6,7,1951,07/31/1952,31,7,1952,10,09/15/1952,15,9,1952,NA,France,Autre ville,Autre France,NA,NA,Ingenieur,Ingenieur,14.86,14.45,10,10,NA,NA,NA,NA,NA,NA,NA,Ingenieur,Ingenieur,geneanet.org
agathe_poissonnier_zalc_notes,585,Andriot,NA,Jean,Louis,Pierre,M,07/28/1927,28,7,1927,France,Rhone,Lyon,NA,1951,NA,NA,NA,1948,NA,NA,NA,NA,NA,07/10/1952,10,7,1952,07/27/1953,27,7,1953,3,09/05/1951,5,9,1951,NA,France,Autre ville,Autre France,Ingenieur des mines au ministere de l’Industrie et du Commerce - Chef du bureau des programmes generaux du Commissariat à l’energie atomique - Conseiller technique au cabinet du Premier Ministre - Membre du Comite consultatif de l’agence d’approvisionnement d’Euratom - Adjoint au directeur des productions pour les recherches et exploitations minieres du Commissariat à l’energie atomique - Charge de mission aupres du secretaire general de l’Energie - Directeur regional de la distribution pour le Nord - Directeur national de la distribution d’EDF-GDF - President de DITT - Delegue general d’EDF ,Directeur national de la distribution d’EDF-GDF,Ingenieur,Ingenieur,16,16.1,3,10,Pas de poursuite d'etudes,Ingenieur des mines au ministere de l’Industrie et du Commerce ,Ministere de l'Industrie et du Commerce ,Ingenieur des mines au ministere de l’Industrie et du Commerce - Chef du bureau des programmes generaux du Commissariat à l’energie atomique - Conseiller technique au cabinet du Premier Ministre - Membre du Comite consultatif de l’agence d’approvisionnement d’Euratom - Adjoint au directeur des productions pour les recherches et exploitations minieres du Commissariat à l’energie atomique - Charge de mission aupres du secretaire general de l’Energie - Directeur regional de la distribution pour le Nord - Directeur national de la distribution d’EDF-GDF - President de DITT - Delegue general d’EDF ,Directeur national de la distribution d’EDF-GDF,NA,Public,Ingenieur,Ingenieur,Who's Who
agathe_poissonnier_zalc_notes,586,Beaumont,NA,Claude,NA,NA,M,02/26/1928,26,2,1928,France,Haut-Rhin,Mulhouse,NA,1951,NA,NA,NA,1947,NA,NA,NA,NA,NA,07/10/1952,10,7,1952,07/27/1953,27,7,1953,3,09/11/1950,11,9,1950,NA,France,Autre ville,Autre France,NA,NA,NA,NA,16.7,15.35,3,10,NA,NA,NA,NA,NA,NA,NA,NA,NA,NA
agathe_poissonnier_zalc_notes,587,Bes De Berc,NA,Olivier,Dominique,Jean Pierre Marie,M,12/16/1929,16,12,1929,France,Paris,Paris,16,1951,NA,NA,NA,1948,NA,NA,NA,NA,NA,07/10/1952,10,7,1952,07/27/1953,27,7,1953,8,09/05/1951,5,9,1951,NA,France,Paris,Paris,Ingenieur des mines - adjoint du directeur des mines au ministere de l'industrie - President de la filiale Aluminium de Pechiney - DG adjoint de SCHNEIDER SA,President de filiale de Pechiney,Ingenieur civil des Mines,Ingenieur civil des Mines,15.85,14.9,8,10,Pas de poursuite d'etudes,Ingenieur des mines,Marseille,Ingenieur des mines - adjoint du directeur des mines au ministere de l'industrie - President de la filiale Aluminium de Pechiney - DG adjoint de SCHNEIDER SA,President de filiale de Pechiney,NA,Public,Ingenieur civil des Mines,Ingenieur civil des Mines,fiche institutionnelle
agathe_poissonnier_zalc_notes,588,Besse,NA,Georges,Pierre,NA,M,12/25/1927,25,12,1927,France,Puy De Dome,Clermont Ferrand,NA,1951,NA,NA,NA,1948,NA,NA,NA,NA,NA,07/10/1952,10,7,1952,07/27/1953,27,7,1953,5,09/05/1951,5,9,1951,NA,France,Autre ville,Autre France,Ingenieur des Mines - directeur industriel au CEA - DG de la societe de construction de l'usine de Pierrelatte de separation isotopique - DG du groupement atomique Alsacienne-Atlantique - DG de Alcatel - President de Alcatel - President d'Eurodif - DG de Cogema - President de Cogeman - President de Pechiney-Ugine-Kuhlmann - President de Renault,President de Renault,Employe poseur de lignes des PTT,Employe de PTT,16.2,15.55,5,10,Pas de poursuite d'etudes,Ingenieur des mines,Mines de Bazailles,Ingenieur des Mines - directeur industriel au CEA - DG de la societe de construction de l'usine de Pierrelatte de separation isotopique - DG du groupement atomique Alsacienne-Atlantique - DG de Alcatel - President de Alcatel - President d'Eurodif - DG de Cogema - President de Cogeman - President de Pechiney-Ugine-Kuhlmann - President de Renault,President de Renault,NA,Public,Employe poseur de lignes des PTT,Employe de PTT,fiche institutionnelle
agathe_poissonnier_zalc_notes,589,Capoulade,NA,Pierre,Georges,NA,M,08/15/1928,15,8,1928,France,Creuse,La Souterraine,NA,1951,NA,NA,NA,1948,NA,NA,NA,NA,NA,07/10/1952,10,7,1952,07/27/1953,27,7,1953,10,09/05/1951,5,9,1951,NA,France,Autre ville,Autre France,Chef du sous-arrondissement mineralogique d’Ales et sous-directeur de l’ecole technique des mines d’Ales - chef du sous-arrondissement mineralogique de Montpellier - secretaire general adjoint de la CFR - administrateur directeur general adjoint de la CRF - directeur de la CFP - directeur de Total approvisionnement raffinage distribution et chimie - PDG de Total Chimie - VP d’Hutchinson.,PDG de Total Chimie,NA,NA,15.2,15.15,10,10,Pas de poursuite d'etudes,Chef du sous-arrondissement mineralogique d’Ales et sous-directeur de l’ecole technique des mines d’Ales ,Ales,Chef du sous-arrondissement mineralogique d’Ales et sous-directeur de l’ecole technique des mines d’Ales - chef du sous-arrondissement mineralogique de Montpellier - secretaire general adjoint de la CFR - administrateur directeur general adjoint de la CRF - directeur de la CFP - directeur de Total approvisionnement raffinage distribution et chimie - PDG de Total Chimie - VP d’Hutchinson.,PDG de Total Chimie,NA,Prive,NA,NA,wiki.total
agathe_poissonnier_zalc_notes,590,Colas,NA,Louis,Anne,Jean Maris,M,02/27/1929,27,2,1929,France,Paris,Paris,6,1951,NA,NA,NA,1948,NA,NA,NA,NA,NA,07/10/1952,10,7,1952,07/27/1953,27,7,1953,7,09/05/1951,5,9,1951,NA,France,Paris,Paris,NA,NA,NA,NA,15.25,15.75,7,10,NA,NA,NA,NA,NA,NA,NA,NA,NA,NA
agathe_poissonnier_zalc_notes,591,De Dominicis,NA,Cyrano,Louis,Jullio,M,03/16/1927,16,3,1927,France,Isere,Moirans,NA,1951,NA,NA,NA,1948,NA,NA,NA,NA,NA,07/10/1953,10,7,1953,09/01/1954,1,9,1954,10,09/05/1951,5,9,1951,NA,France,Autre ville,Autre France,Professeur au Service de Physique Theorique du centre de recherche nucleaire à Saclay - Directeur du centre de recherche nucleaire à Saclay,Directeur du centre de recherche nucleaire à Saclay,NA,NA,14.35,12.69,10,11,NA,NA,NA,Professeur au Service de Physique Theorique du centre de recherche nucleaire à Saclay - Directeur du centre de recherche nucleaire à Saclay,Directeur du centre de recherche nucleaire à Saclay,NA,Public,NA,NA,Wikipedia
agathe_poissonnier_zalc_notes,592,Dupuy,NA,Jean,Rene,NA,M,09/23/1929,23,9,1929,France,Correze,Tulle,NA,1951,NA,NA,NA,1948,NA,NA,NA,NA,NA,07/10/1952,10,7,1952,07/27/1953,27,7,1953,2,09/05/1951,5,9,1951,NA,France,Autre ville,Autre France,professeur de francais et chercheur au Centre d'etude du langage et de l'information de l'universite de Standford - enseignant de philosophie sociale et politique et l'ethique des sciences et techniques a l'ecole polytechnique - fondateur du centre de sciences cognitives et d'epistemologie de l'ecole polytechnique,professeur,NA,NA,16.5,15.7,2,10,NA,NA,NA,professeur de francais et chercheur au Centre d'etude du langage et de l'information de l'universite de Standford - enseignant de philosophie sociale et politique et l'ethique des sciences et techniques a l'ecole polytechnique - fondateur du centre de sciences cognitives et d'epistemologie de l'ecole polytechnique,professeur,Polytechnique,public,NA,NA,https://fr.wikipedia.org/wiki/Jean-Pierre_Dupuy
agathe_poissonnier_zalc_notes,593,Lesourne,NA,Jacques,Francois,NA,M,12/26/1928,26,12,1928,France,Charente Maritime,La Rochelle,NA,1951,NA,NA,NA,1948,NA,NA,NA,NA,NA,07/10/1952,10,7,1952,07/27/1953,27,7,1953,1,09/05/1951,5,9,1951,NA,France,Autre ville,Autre France,stagiare - chef du service economique aux Charbonnages de France - fondateur dirceteur general et president de SEMA - directeur ud projet Interfuturs a l'OCDE - professeur d'econoie - president du departement econmie et gestion au Consevatoire national des Arts et metiers - directeur-gerant du journal Le Monde - president de l'association francaise de science economique - futurbiles et furutirs - de l'international federation of operational research societies,directeur-gerant,officier,officier,16.9,17.4,1,10,non,stagiare,service economique aux Charbonnages de France,stagiare - chef du service economique aux Charbonnages de France - fondateur dirceteur general et president de SEMA - directeur ud projet Interfuturs a l'OCDE - professeur d'econoie - president du departement econmie et gestion au Consevatoire national des Arts et metiers - directeur-gerant du journal Le Monde - president de l'association francaise de science economique - futurbiles et furutirs - de l'international federation of operational research societies,directeur-gerant,Journal le Monde,prive,officier,officier,http://www.annales.org/archives/x/lesourne.html
agathe_poissonnier_zalc_notes,594,Mathieu,NA,Jean-Noel,Billy,NA,M,12/22/1928,22,12,1928,France,Meurthe Et Moselle,Nancy,NA,1951,NA,NA,NA,1948,NA,NA,NA,NA,NA,07/10/1952,10,7,1952,07/27/1953,27,7,1953,6,09/05/1951,5,9,1951,NA,France,Autre ville,Autre France,directeur du CMM Industries - chariman de CMM Industries,directeur,NA,NA,15.8,15.5,6,10,NA,NA,NA,directeur du CMM Industries - chariman de CMM Industries,directeur,CMM Industries Sa,Prive,NA,NA,NA
agathe_poissonnier_zalc_notes,595,Pertus,NA,Jean-Pierre,Arnold,Marcel,M,04/16/1927,16,4,1927,Algerie,Alger,Alger,NA,1951,NA,NA,NA,1948,NA,NA,NA,NA,NA,07/10/1952,10,7,1952,07/27/1953,27,7,1953,9,09/05/1951,5,9,1951,NA,Colonies,Autre ville,(Ex) Colonie,directeur regional du services des mines - de l'ecole des mines d'Ales,directeur,NA,NA,NA,NA,8,10,NA,NA,NA,directeur regional du services des mines - de l'ecole des mines d'Ales,directeur,ecole des mines d'ales,public,NA,NA,https://www.ac-sciences-lettres-montpellier.fr/academie_edition/fichiers_conf/EPRON-2013.pdf
