ID,NOM ,prenom_1,prenom_2,prenom_3 ,Titre_de_Noblesse,naissance_jour,naissance_mois,naissance_annee,date de sortie ,classement,legion_d'honneur,Chevalier_de_la_legion,Officier_de_la_legion,Commandeur_de_la_legion,Grande_officier,Grand_croix,date d'obtention_jour,date obtention_mois,date_otention_annee,sous quel regime ,ingenieurs_civils  ,Corp_des_Mines,orientation_politique ,source
,DE MARTHA-BECKER,Felix,Victor,,oui,13,7,1808,1833,,Oui,Non,Oui,Non,Non,Non,,,,,Non,Oui,Conservateur,
,SAUVAGE,Francois-Clement,,,non,4,4,1814,1836,,Oui,Non,Non,Oui,Non,Non,,,1868,2nd Empire,Non,Oui,Royalistes-Republicains moderes,"Le livre du centenaire, 1897, tome 3"
,SENS,Edouard,Joseph,,non,20,2,1826,,5,Oui,Oui,Non,Non,Non,Non,,,1869,2nd Empire,Non,Oui,Bonapartiste,Catherine Menec-Frenoy
,WICKERSHEIMER,Charles,Emile,,non,22,2,1849,1874,3,Oui,Non,Oui,Non,Non,Non,,,,,Non,Oui,Republicain-radical,
181,JANET,Leon,Augustin,,non,6,12,1861,1884,1,Oui,Oui,Non,Non,Non,Non,,,,,Non,Oui,Gauche-radicale,"Annales des Mines, discours de funerailles, 1909, ministre des Travaux publics"
228,LEBRUN,Albert,Francois,,non,20,8,1871,1896,1,Non,Non,Non,Non,Non,Non,,,,,Non,Oui,Republicains de gauche," Albert Lebrun, le dernier President de la IIIe Republique,Freysselinard, 2013"
85,BERAL,Eloi,Bernard,,non,1,8,1838,,,Non,Non,Non,Non,Non,Non,,,,,Non,Oui,NA,
34,BLAVIER,Aime-Etienne,,,non,21,8,1827,,,Oui,Non,Non,Non,Non,Non,2,5,1849,2eme Republique,Non,Oui,NA,
1136,BINEAU,Jean-Martial,,,non,18,5,1805,,,Oui,Non,Non,Non,Non,Oui,4,2,1855,2nd Empire,Non,Oui,NA,"LIVRE DU CENTENAIRE (Ecole Polytechnique), 1897, Gauthier-Villars et fils"
,HERICART DE THURY,Louis-Etienne-Francois,,,oui,3,6,1776,,,oui,Non,oui,Non,Non,Non,16,5,1816,Premier empire,Non,Oui,liberal ,Annales
,VARIN dit D'AINVELLE,Felix,Jean,Baptiste ,Non,22,1,1806,,,non,Non,Non,Non,Non,Non,,,,,Non,Oui,NA,Annales
,CHEVALIER,Jean-Baptiste,,,Non,1,1,1806,1829,4,oui,Non,oui,Non,Non,Non,,,,Monarchie de Juillet ,Non,Oui,liberal,Annales
,REYNAUD,Jean,Ernest,,Non,4,2,1806,1829,,non,Non,Non,Non,Non,Non,,,,,Non,Oui,NA,Annales
,GROUCHY de,Ernest,Henri,,Non,,,1773,1828,2,non,Non,Non,Non,Non,Non,,,,,Non,Oui,bonapartiste,Annales
40,DE SAULCES DE FREYCINETINET,Louis,Charles,,Non,14,11,1828,1852,,oui,Non,oui,Non,Non,Non,8,8,1870,Troisieme republique ,Non,Oui,republicains ,Annales
,LE PLAY,Pierre-Guillaume-Frederic,,,Non,11,4,1806,,,oui,Non,Non,Non,oui,Non,,6,1867,2nd Empire,Non,Oui,contre-revolutionnaire ,Annales
,VARROY,Henri,Auguste,,NA,25,3,1826,1849,1,Non,Non,Non,Non,Non,Non,,,,,Non,Oui,Republicain,Annales
,TEZENAS,Antoine,Hippolyte,,NA,16,2,1815,,,Non,Non,Non,Non,Non,Non,,,,,Non,Oui,Gauche republicaine,Annales
,TEISSERENC DE BORT,Pierre,Edmond,,NA,,,1814,1835,36,Oui,Oui,Non,Non,Non,Non,,,,,Non,Oui,NA,Annales
,TAILLEPIED DE BONDY,Francois,Marie,,NA,23,4,1802,1826,,Non,Non,Non,Non,Non,Non,,,,,Non,Oui,Centre droit,Wikipedia
,MEINADIER,Pierre,Jacques ,Ernest,NA,16,7,1812,,,Oui,Non,Oui,Non,Non,Non,,,,,Non,Oui,Gauche republicaine,Dictionnaire des parlementaires francais
,DE MARTHA-BECKER,Felix,Victor,,NA,13,7,1808,,12,Oui,Non,Oui,Non,Non,Non,,,,,Non,Oui,Conservateur,Annales
147,SAUVAGE ,Francois-Clement,,,NA,4,4,1814,,,Oui,Non,Non,Oui,Non,Non,,,,,Non,Oui,Royaliste,"Le livre du centenaire, 1897, tome 3"
6,SENS,Edouard ,Joseph,,NA,20,2,1826,,5,Oui,Non,Non,Non,Non,Non,,,,,Non,Oui,NA,Catherine Menec-Frenoy
272,ULRICH,Jacques,Marie,Marcel,NA,2,7,1880,,5,Oui,Non,Non,Oui,Non,Non,,,,,Non,Oui,Parti Republicain,Annales
678,STORELU,Lionel,Guy,,NA,22,11,1937,,2,Oui,Non,Non,Oui,Non,Non,,,,,Non,Oui,Parti Republicain puis PSD,Annales
883,LOOS,Francois,,,NA,24,12,1953,,,Non,Non,Non,Non,Non,Non,,,,,Non,Oui,UMP,Wikipedia
744,VERNIER,Jacques,,,NA,3,7,1944,,,Non,Non,Non,Non,Non,Non,,,,,Non,Oui,NA,Annales
,CODET,Francois,,,Non,13,4,1903,,,Non,Non,Non,Non,Non,Non,,,,,Oui,Non,NA,Annales
,LESPES,Henri,Vincent,Theodore,Non,7,3,1909,1832,23,Non,Non,Non,Non,Non,Non,,,,,Oui,Non,NA,Annales
,NISSE,Robert,Carlos ,Achille,Non,28,7,1900,,1,Non,Non,Non,Non,Non,Non,,,,,Oui,Non,NA,Annales
,PEBELLIER,Eugene-Gaston,,,,3,11,1897,,,Non,Non,Non,Non,Non,Non,,,,,Oui,Non,Republicains independants ,Annales
,MASSON ,Jean-Louis,,,NA,25,3,1947,,,,,,,,,,,,,Oui,Non,RPR puis UMP,Annales
,POHER,Alain,,,NA,17,4,1909,,,,,,,,,,,,,Oui,Non,(president du senat),SITE SENAT
,DE WENDEL,Francois,,,NA,5,5,1874,,11,Non,Non,Non,Non,Non,Non,,,,,Oui,Non,NA,Annales
,MASSON,Jean-Louis,,,Non,25,3,1947,,,non,Non,Non,Non,Non,Non,,,,,oui,Non,droite ,Annales
