nom,prenom1,corpsard,ingenieur civil,professions.x,profession_max,mandat_politique_1,mandat_politique_debut_1,mandat_politique_fin_1,mandat_politique_age_1,mandat_politique_circonscription_1,mandat_politique_circonscription_numero_1,mandat_politique_2,mandat_politique_debut_2,mandat_politique_fin_2,mandat_politique_age_2,mandat_politique_circonscription_2,mandat_politique_circonscription_numero_2,mandat_politique_3,mandat_politique_debut_3,mandat_politique_fin_3,mandat_politique_age_3,mandat_politique_circonscription_3,mandat_politique_circonscription_numero_3,mandat_politique_4,mandat_politique_debut_4,mandat_politique_fin_4,mandat_politique_age_4,mandat_politique_circonscription_4,mandat_politique_circonscription_numero_4,mandat_politique_5,mandat_politique_debut_5,mandat_politique_fin_5,mandat_politique_age_5,mandat_politique_circonscription_5,mandat_politique_circonscription_numero_5,mandat_politique_6,mandat_politique_debut_6,mandat_politique_fin_6,mandat_politique_age_6,mandat_politique_circonscription_6,mandat_politique_circonscription_numero_6,professions_pere.x,profession_pere_max.x,mandat_politique_pere,mandat_politique_pere_debut,mandat_politique_pere_fin,mandat_politique_pere_circonscription,profession_gp,haute_profession_gp,mandat_politique_gp,mandat_politique_gp_debut,mandat_politique_gp_fin,mandat_politique_gp_circonscription,commentaire_entourage,commentaire_autre,X42,Député,Sénateur,cr_département,Député_Nbr_Mandats,Période d'exercice,Régime,député M_1 entrée,député M_1 sortie,député M_1 parti,député M_2 entrée,député M_2 sortie,député M_2 parti,député M_3 entrée,député M_3 sortie,député M_3 parti,député M_4 entrée,député M_4 sortie,député M_4 parti,député M_+4,Nombre de mandats,Sénateur M_1 entrée,Sénateur M_1 sortie,Sénateur M_1 parti,Sénateur M_2 entrée,Sénateur M_2 sortie,Sénateur M_2 parti,Sénateur M_3 entrée,Sénateur M_3 sortie,Sénateur M_3 parti,Sénateur M_+3,Tendance politique,Autres fonctions politiques,Identité du père,profession_pere_max.y,professions_pere.y,professions.y,profession_pere_max_1,Légion d'honneur,Autres distinctions,remarques,Député_sénateur.x,Circonscription.x,Nombre_mandats.x,Année_premier_mandat.x,Année dernier mandat,Autre_fonction_politique.x,Année_première_fonction.x,Année_dernière_fonction.x,Parti_politique_majeur.x,Engagement_famille,Sources.x,Député_sénateur.y,Circonscription.y,Nombre_mandats.y,Année_premier_mandat.y,Année_dernier_mandat,Autre_fonction_politique.y,Année_première_fonction.y,Année_dernière_fonction.y,Parti_politique_majeur.y,Engagement_de_la_famille,Sources.y,Titre_de_Noblesse,date de sortie,classement,legion_d'honneur,Chevalier_de_la_legion,Officier_de_la_legion,Commandeur_de_la_legion,Grande_officier,Grand_croix,date d'obtention_jour,date obtention_mois,date_otention_annee,sous quel regime,ingenieurs_civils,Corp_des_Mines,orientation_politique,source
Aimond,Emile-Theodore,Non,Oui,Ingenieur Civil Des Mines; Maire; Conseiller General; Depute; Senateur; Rapporteur General Du Budget,Rapporteur General Du Budget,Maire,1892,1892,42,Saint-Leu-Taverny,NA,Conseiller General,1893,1893,43,Saint-Leu-Taverny,NA,Depute,1898,1902,48,Seine-Et-Oise,NA,Depute,1906,1909,56,Seine-Et-Oise,NA,Senateur,1909,1917,59,Seine-Et-Oise,NA,Rapporteur General Du Budget,1913,1913,63,NA,NA,NA,NA,NA,NA,NA,NA,NA,NA,NA,NA,NA,NA,NA,NA,NA,NA,NA,NA,NA,NA,NA,NA,NA,NA,NA,NA,NA,NA,NA,NA,NA,NA,NA,NA,NA,NA,NA,NA,NA,NA,NA,NA,NA,NA,NA,NA,NA,NA,NA,NA,NA,NA,NA,NA,NA,NA,NA,NA,NA,NA,NA,NA,NA,NA,NA,NA,NA,NA,NA,NA,NA,NA,NA,NA,NA,NA,NA,NA,NA,NA,NA,NA,NA,NA,NA,NA,NA,NA,NA,NA,NA,NA,NA,NA
Berger,Georges,Non,Oui,Ingenieur A La Compagnie Des Chemins De Fer Du Nord; Membre De L'institut Des Beaux Arts; Depute,Depute,Depute,1889,1893,55,Paris,2,Depute,1893,1898,59,Paris,2,Depute,1898,1902,65,Paris,2,Depute,1902,1906,69,Paris,2,Depute,1906,1910,72,Paris,2,NA,NA,NA,NA,NA,NA,NA,NA,NA,NA,NA,NA,NA,NA,NA,NA,NA,NA,NA,NA,NA,NA,NA,NA,NA,NA,NA,NA,NA,NA,NA,NA,NA,NA,NA,NA,NA,NA,NA,NA,NA,NA,NA,NA,NA,NA,NA,NA,NA,NA,NA,NA,NA,NA,NA,NA,NA,NA,NA,NA,NA,NA,NA,NA,NA,NA,NA,NA,NA,NA,NA,NA,NA,NA,NA,NA,NA,NA,NA,NA,NA,NA,NA,NA,NA,NA,NA,NA,NA,NA,NA,NA,NA,NA,NA,NA,NA,NA,NA,NA
Bineau,Jean-Martial,Non,Oui,Inspecteur General Des Mines; Ingenieur En Chef Des Mines; Depute; Senateur; President Du Conseil General; Ministre Des Finances; Professeur D'economie General Et De Statistique; Ministre Des Travaux Publics; Rapporteur De La Comission Du Budget,Ministre Des Finances,Depute,1841,1848,36,Angers,2,Depute,1848,1849,43,Maine-Et-Loire,NA,Ministre Des Travaux Publics,1849,1851,45,NA,NA,Ministre Des Finances,1852,1855,47,NA,NA,Senateur,1852,1855,47,Maine-Et-Loire,NA,President Du Conseil General,1852,1855,47,Maine-Et-Loire,NA,NA,NA,NA,NA,NA,NA,NA,NA,NA,NA,NA,NA,NA,NA,NA,NA,NA,NA,NA,NA,NA,NA,NA,NA,NA,NA,NA,NA,NA,NA,NA,NA,NA,NA,NA,NA,NA,NA,NA,NA,NA,NA,NA,NA,NA,NA,NA,NA,NA,NA,NA,NA,NA,NA,NA,NA,NA,NA,NA,NA,NA,NA,NA,NA,NA,NA,NA,NA,NA,NA,NA,NA,NA,NA,NA,NA,NA,Non,NA,NA,Oui,Non,Non,Non,Non,Oui,4,2,1855,2nd Empire,Non,Oui,NA,"Livre Du Centenaire (Ecole Polytechnique), 1897, Gauthier-Villars Et Fils"
Janet,Leon,Oui,Non,Ingenieur En Chef Des Mines; Conseiller Municipal; Conseiller General; Depute,Depute,Conseiller General,?,?,?,Boubs,NA,Depute,1902,1906,41,Boubs,NA,NA,NA,NA,NA,NA,NA,NA,NA,NA,NA,NA,NA,NA,NA,NA,NA,NA,NA,NA,NA,NA,NA,NA,NA,Officier De Marine,NA,NA,NA,NA,NA,NA,NA,NA,NA,NA,NA,Neveu D'un Depute (Charles Tranu,NA,NA,Oui,Non,Doubs,2,1902-1909,3r,1902,1906,Gauche Radicale,1906,1909,Gauche Radicale,NA,NA,NA,NA,NA,NA,NA,NA,NA,NA,NA,NA,NA,NA,NA,NA,NA,NA,Gauche,Conseiller General Du Doubs (1902-1909),Camille Janet,Officier De Marine,NA,NA,NA,Chevalier,NA,NA,Depute,25,2,1902,1909,NA,NA,NA,Gauche Radical,Oncle Depute,NA,NA,NA,NA,NA,NA,NA,NA,NA,NA,NA,NA,Non,1884,1,Oui,Oui,Non,Non,Non,Non,NA,NA,NA,NA,Non,Oui,Gauche-Radicale,"Annales Des Mines, Discours De Funerailles, 1909, Ministre Des Travaux Publics"
Boudenoot,Louis,Non,Oui,Ingenieur Civil Des Mines; Depute; Senateur; Conseiller General Du Pas De Calais,Senateur,Depute,1889,1893,34,Pas De Calais,NA,Depute,1893,1898,38,Pas De Calais,NA,Depute,1898,1901,43,Pas De Calais,NA,Senateur,1901,1909,45,Pas De Calais,NA,Senateur,1909,1920,54,Pas De Calais,NA,NA,NA,NA,NA,NA,NA,NA,NA,NA,NA,NA,NA,NA,NA,NA,NA,NA,NA,NA,Licence De Droit Avant Polytechnique,NA,NA,NA,NA,NA,NA,NA,NA,NA,NA,NA,NA,NA,NA,NA,NA,NA,NA,NA,NA,NA,NA,NA,NA,NA,NA,NA,NA,NA,NA,NA,NA,NA,NA,NA,NA,NA,NA,NA,NA,NA,NA,NA,NA,NA,NA,NA,NA,NA,NA,NA,NA,NA,NA,NA,NA,NA,NA,NA,NA,NA,NA,NA,NA,NA,NA,NA,NA,NA,NA,NA,NA,NA,NA,NA,NA,NA,NA,NA,NA
Carnot,Ernest,Non,Oui,Depute; Conseiller General; President D'une Societe,Depute,Depute,1894,1898,28,Cote D'or,NA,NA,NA,NA,NA,NA,NA,NA,NA,NA,NA,NA,NA,NA,NA,NA,NA,NA,NA,NA,NA,NA,NA,NA,NA,NA,NA,NA,NA,NA,NA,Ingenieur En Chef; Depute De La Cote D'or; Prefet; Sous Scretaire D'etat Aux Travaux Publics; Ministre Des Finances; President De La Republique,President De La Republique,President De La Republique,1887,1894,NA,Ingenieur; Ministre De L'education; Ministre De L'instruction Publique; Depute; Senateur,Ministre De L'instruction Publique,Ministre De L'instruction Publique,1848,?,NA,Appartient A Une Famille De La Bourgeoisie Francaise. 4 Generations De Fonctions Politiques,Licence De Droit,NA,NA,NA,NA,NA,NA,NA,NA,NA,NA,NA,NA,NA,NA,NA,NA,NA,NA,NA,NA,NA,NA,NA,NA,NA,NA,NA,NA,NA,NA,NA,NA,NA,NA,NA,NA,NA,NA,NA,NA,NA,NA,NA,NA,NA,NA,NA,NA,NA,NA,NA,NA,NA,NA,NA,NA,NA,NA,NA,NA,NA,NA,NA,NA,NA,NA,NA,NA,NA,NA,NA,NA,NA,NA,NA,NA,NA,NA,NA,NA
Carnot,Jean,Non,Oui,Ingenieur Des Mines; Conseiller General; Depute; President De L'union Des Societes De Tir De France; President De L'union Internationale De Tir; Preisdent De L'union Des Societes De Gymnastique De France,Depute,Depute,1924,1928,43,Charente,NA,NA,NA,NA,NA,NA,NA,NA,NA,NA,NA,NA,NA,NA,NA,NA,NA,NA,NA,NA,NA,NA,NA,NA,NA,NA,NA,NA,NA,NA,NA,Progesseur De Chimie; Inspecteur Des Etudes; Directeur De L'ecole; President Du Conseil D'administration Du Gaz De Paris; President De La Societe D'encouragement Pour L'industrie Nationale; Conseiller General De La Charente; President Du Conseil General De La Charente,President Du Conseil General De La Charente,President Du Conseil General,1902,1908,Charente,Ingenieur; Ministre De L'education; Ministre De L'instruction Publique; Depute; Senateur,Ministre De L'instruction Publique,Ministre De L'instruction Publique,1848,NA,NA,Appartient A Une Famille De La Bourgeoisie Francaise. 4 Generations De Fonctions Politiques,NA,NA,NA,NA,NA,NA,NA,NA,NA,NA,NA,NA,NA,NA,NA,NA,NA,NA,NA,NA,NA,NA,NA,NA,NA,NA,NA,NA,NA,NA,NA,NA,NA,NA,NA,NA,NA,NA,NA,NA,NA,NA,NA,NA,NA,NA,NA,NA,NA,NA,NA,NA,NA,NA,NA,NA,NA,NA,NA,NA,NA,NA,NA,NA,NA,NA,NA,NA,NA,NA,NA,NA,NA,NA,NA,NA,NA,NA,NA,NA,NA
Chaper,Pierre,Non,Oui,Artilleur; Co-Directeur Des Fonderies De Chaillot; Prefet; Depute,Depute,Depute,1849,1851,54,Cote D'or,NA,NA,NA,NA,NA,NA,NA,NA,NA,NA,NA,NA,NA,NA,NA,NA,NA,NA,NA,NA,NA,NA,NA,NA,NA,NA,NA,NA,NA,NA,NA,Chef De Division; Collaborateur Au Ministere De La Guerre,Collaborateur Au Ministere De La Guerre,NA,NA,NA,NA,NA,NA,NA,NA,NA,NA,NA,NA,NA,NA,NA,NA,NA,NA,NA,NA,NA,NA,NA,NA,NA,NA,NA,NA,NA,NA,NA,NA,NA,NA,NA,NA,NA,NA,NA,NA,NA,NA,NA,NA,NA,NA,NA,NA,NA,NA,NA,NA,NA,NA,NA,NA,NA,NA,NA,NA,NA,NA,NA,NA,NA,NA,NA,NA,NA,NA,NA,NA,NA,NA,NA,NA,NA,NA,NA,NA,NA,NA,NA,NA,NA,NA,NA,NA,NA,NA,NA,NA
Chevalier,Michel,Oui,Non,Editeur; Chair D'economie Politique Au College De France; Membre De L'academie Des Sciences Morales Et Politiques; Conseiller Economique; Senateur; Depute,Senateur,Depute,1845,?,39,Aveyron,NA,Senateur,1869,?,63,NA,NA,NA,NA,NA,NA,NA,NA,NA,NA,NA,NA,NA,NA,NA,NA,NA,NA,NA,NA,NA,NA,NA,NA,NA,NA,Chef De Bureau A La Direction Des Contributions Indirectes,NA,NA,NA,NA,NA,NA,NA,NA,NA,NA,NA,Frere Qui A Fait Polytechnique,NA,NA,NA,NA,NA,NA,NA,NA,NA,NA,NA,NA,NA,NA,NA,NA,NA,NA,NA,NA,NA,NA,NA,NA,NA,NA,NA,NA,NA,NA,NA,NA,NA,NA,NA,NA,NA,NA,NA,NA,NA,NA,NA,NA,NA,NA,NA,NA,NA,NA,NA,NA,NA,Les Deux,Aveyron,1 Depute Puis 1 Senateur,1845,1860,Notamment Conseiller D'etat,1838,NA,Convictions Economiques Et Autoritaires,NA,Site De L'ecole Des Mines,NA,NA,NA,NA,NA,NA,NA,NA,NA,NA,NA,NA,NA,NA,NA,NA,NA
Clauzel,Jean-Marie,Non,Oui,Ingenieur; Depute,Depute,Depute,1886,1893,44,Ardeche,NA,NA,NA,NA,NA,NA,NA,NA,NA,NA,NA,NA,NA,NA,NA,NA,NA,NA,NA,NA,NA,NA,NA,NA,NA,NA,NA,NA,NA,NA,NA,NA,NA,NA,NA,NA,NA,NA,NA,NA,NA,NA,NA,NA,NA,NA,NA,NA,NA,NA,NA,NA,NA,NA,NA,NA,NA,NA,NA,NA,NA,NA,NA,NA,NA,NA,NA,NA,NA,NA,NA,NA,NA,NA,NA,NA,NA,NA,NA,NA,NA,NA,NA,NA,NA,NA,NA,NA,NA,NA,NA,NA,NA,NA,NA,NA,NA,NA,NA,NA,NA,NA,NA,NA,NA,NA,NA,NA,NA,NA,NA,NA,NA,NA,NA,NA,NA,NA,NA,NA,NA,NA,NA,NA,NA
Codet,Francois,Non,Oui,Ingenieur; Depute,Depute,Depute,1962,1962,59,NA,NA,NA,NA,NA,NA,NA,NA,NA,NA,NA,NA,NA,NA,NA,NA,NA,NA,NA,NA,NA,NA,NA,NA,NA,NA,NA,NA,NA,NA,NA,NA,NA,NA,NA,NA,NA,NA,NA,NA,NA,NA,NA,NA,NA,NA,NA,NA,NA,NA,NA,NA,NA,NA,NA,NA,NA,NA,NA,NA,NA,NA,NA,NA,NA,NA,NA,NA,NA,NA,NA,NA,NA,NA,NA,NA,NA,NA,NA,NA,NA,NA,NA,NA,NA,NA,NA,NA,NA,NA,NA,NA,NA,NA,NA,NA,NA,NA,NA,NA,NA,NA,NA,NA,NA,NA,NA,NA,NA,Non,NA,NA,Non,Non,Non,Non,Non,Non,NA,NA,NA,NA,Oui,Non,NA,Annales
De Cressac,Eutrope-Barthelemy,Oui,Non,Ingenieur; Depute,Depute,Depute,1824,1827,47,Vienne,NA,Depute,1827,1830,50,Vienne,NA,NA,NA,NA,NA,NA,NA,NA,NA,NA,NA,NA,NA,NA,NA,NA,NA,NA,NA,NA,NA,NA,NA,NA,NA,Banquier,NA,NA,NA,NA,NA,NA,NA,NA,NA,NA,NA,NA,NA,NA,NA,NA,NA,NA,NA,NA,NA,NA,NA,NA,NA,NA,NA,NA,NA,NA,NA,NA,NA,NA,NA,NA,NA,NA,NA,NA,NA,NA,NA,NA,NA,NA,NA,NA,NA,NA,NA,NA,NA,NA,NA,NA,NA,NA,NA,NA,NA,NA,NA,NA,NA,NA,NA,NA,NA,NA,NA,NA,NA,NA,NA,NA,NA,NA,NA,NA,NA,NA,NA,NA,NA,NA,NA,NA,NA,NA,NA,NA,NA
Dufaure,Gabriel,Non,Oui,NA,NA,NA,NA,NA,NA,NA,NA,NA,NA,NA,NA,NA,NA,NA,NA,NA,NA,NA,NA,NA,NA,NA,NA,NA,NA,NA,NA,NA,NA,NA,NA,NA,NA,NA,NA,NA,NA,NA,NA,NA,NA,NA,NA,NA,NA,NA,NA,NA,NA,NA,Pb Concernant La Date De Naissance : Certaines Sources Disent 1846; 1847,NA,NA,NA,NA,NA,NA,NA,NA,NA,NA,NA,NA,NA,NA,NA,NA,NA,NA,NA,NA,NA,NA,NA,NA,NA,NA,NA,NA,NA,NA,NA,NA,NA,NA,NA,NA,NA,NA,NA,NA,NA,NA,NA,NA,NA,NA,NA,NA,NA,NA,NA,NA,NA,NA,NA,NA,NA,NA,NA,NA,NA,NA,NA,NA,NA,NA,NA,NA,NA,NA,NA,NA,NA,NA,NA,NA,NA,NA,NA,NA
Garnier,Etienne,Non,Oui,Depute,Depute,Depute,1876,1877,54,Yonne,NA,Depute,1884,1885,62,Yonne,NA,1889,1890,67,NA,NA,NA,NA,NA,NA,NA,NA,NA,NA,NA,NA,NA,NA,NA,NA,NA,NA,NA,NA,NA,Maire,Maire,NA,NA,NA,NA,NA,NA,NA,NA,NA,NA,NA,NA,NA,NA,NA,NA,NA,NA,NA,NA,NA,NA,NA,NA,NA,NA,NA,NA,NA,NA,NA,NA,NA,NA,NA,NA,NA,NA,NA,NA,NA,NA,NA,NA,NA,NA,NA,NA,NA,NA,NA,NA,NA,NA,NA,NA,NA,NA,NA,NA,NA,NA,NA,NA,NA,NA,NA,NA,NA,NA,NA,NA,NA,NA,NA,NA,NA,NA,NA,NA,NA,NA,NA,NA,NA,NA,NA,NA,NA,NA,NA,NA
Girard,Raoul,Non,Oui,Ingenieur Civil Des Mines; Conseiller General; Depute,Depute,Depute,1932,1936,34,Jura,NA,NA,NA,NA,NA,NA,NA,NA,NA,NA,NA,NA,NA,NA,NA,NA,NA,NA,NA,NA,NA,NA,NA,NA,NA,NA,NA,NA,NA,NA,NA,NA,NA,NA,NA,NA,NA,NA,NA,NA,NA,NA,NA,NA,NA,NA,NA,NA,NA,NA,NA,NA,NA,NA,NA,NA,NA,NA,NA,NA,NA,NA,NA,NA,NA,NA,NA,NA,NA,NA,NA,NA,NA,NA,NA,NA,NA,NA,NA,NA,NA,NA,NA,NA,NA,NA,NA,NA,NA,NA,NA,NA,NA,NA,NA,NA,NA,NA,NA,NA,NA,NA,NA,NA,NA,NA,NA,NA,NA,NA,NA,NA,NA,NA,NA,NA,NA,NA,NA,NA,NA,NA,NA,NA,NA
Grouchy,Ernest,Oui,Non,Sous-Prefet; Prefet; Depute; Conseiller General,Depute,Depute,1857,1863,51,Loiret,NA,Depute,1863,1869,57,Loiret,NA,NA,NA,NA,NA,NA,NA,NA,NA,NA,NA,NA,NA,NA,NA,NA,NA,NA,NA,NA,NA,NA,NA,NA,NA,Chevalier De L'ordre De Malte,Chevalier De L'ordre De Malte,NA,NA,NA,NA,Cornette De Cavalerie,Cornette De Cavalerie,NA,NA,NA,NA,NA,Quitte L'ecole Des Mines En 1828 Pour Rejoindre Celle Des Ponts Et Chaussees.,NA,NA,NA,NA,NA,NA,NA,NA,NA,NA,NA,NA,NA,NA,NA,NA,NA,NA,NA,NA,NA,NA,NA,NA,NA,NA,NA,NA,NA,NA,NA,NA,NA,NA,NA,NA,NA,NA,NA,NA,NA,NA,NA,NA,NA,NA,NA,NA,NA,NA,NA,NA,NA,NA,NA,NA,NA,NA,NA,NA,NA,NA,NA,NA,NA,NA,NA,NA,NA,NA,NA,NA,NA,NA,NA,NA,NA,NA,NA,NA
Hericart De Thury,Louis-Etienne-Francois,Oui,Non,Inspection Des Carrieres Et Directeur Des Travaux; Ingenieur; Directeur Des Travaux De Paris; Maitre Des Requetes; Conseiller General De La Seine; Depute; Inspecteur General De 2e Classe; Membre Libre De L'academie Des Sciences; Associe Libre De L'academie Nationale De Medecine; Membre Fondateur De La Societe Nationale Des Antiquaires De France; De La Societe Sericole; De La Societe D'horticulture Et De La Societe D'encouragement Pour L'industrie Nationale,Depute,Depute,1815,1816,39,Oise,NA,Depute,1820,1824,43,Seine,NA,Depute,1824,1827,47,Seine,NA,NA,NA,NA,NA,NA,NA,NA,NA,NA,NA,NA,NA,NA,NA,NA,NA,NA,NA,Conseiller Maitre En La Chambre Des Comptes,Conseiller Maitre En La Chambre Des Comptes,NA,NA,NA,NA,NA,NA,NA,NA,NA,NA,NA,Ne Passe Pas Par Polytechnique Entre Aux Mines Par Admission Directe,NA,NA,NA,NA,NA,NA,NA,NA,NA,NA,NA,NA,NA,NA,NA,NA,NA,NA,NA,NA,NA,NA,NA,NA,NA,NA,NA,NA,NA,NA,NA,NA,NA,NA,NA,NA,NA,NA,NA,NA,NA,NA,NA,NA,NA,NA,NA,NA,NA,NA,NA,NA,NA,NA,NA,NA,NA,NA,NA,NA,NA,NA,NA,Oui,NA,NA,Oui,Non,Oui,Non,Non,Non,16,5,1816,Premier Empire,Non,Oui,Liberal,Annales
Javal,Louis,Non,Oui,Ingenieur Civil; Medecin; Professeur Et Membre De L'academie De Medecine; Depute,Depute,Depute,1885,1889,46,Yonne,NA,NA,NA,NA,NA,NA,NA,NA,NA,NA,NA,NA,NA,NA,NA,NA,NA,NA,NA,NA,NA,NA,NA,NA,NA,NA,NA,NA,NA,NA,NA,Banquier Saint-Simonien Et Agronome; Initiateur Des Omnibus De Paris; Promoteur Des Pins Des Landes (; Membre Du Consistoire Israelite De France Et Vice-President De L'alliance Israelite Universelle,NA,Depute,1857,1871,Yonne,Banquier Et Industriel,NA,NA,NA,NA,NA,NA,Le Pere : Elu 4 Fois Depute,NA,NA,NA,NA,NA,NA,NA,NA,NA,NA,NA,NA,NA,NA,NA,NA,NA,NA,NA,NA,NA,NA,NA,NA,NA,NA,NA,NA,NA,NA,NA,NA,NA,NA,NA,NA,NA,NA,NA,NA,NA,NA,NA,NA,NA,NA,NA,NA,NA,NA,NA,NA,NA,NA,NA,NA,NA,NA,NA,NA,NA,NA,NA,NA,NA,NA,NA,NA,NA,NA,NA,NA,NA,NA,NA,NA,NA,NA,NA,NA
Jobez,Henri,Non,Oui,Ingenieur; Depute,Depute,Depute,1897,1898,32,Jura,NA,NA,NA,NA,NA,NA,NA,NA,NA,NA,NA,NA,NA,NA,NA,NA,NA,NA,NA,NA,NA,NA,NA,NA,NA,NA,NA,NA,NA,NA,NA,NA,NA,NA,NA,NA,NA,NA,NA,NA,NA,NA,NA,NA,Pb De Date : Les Annales Donnent Deux Dats D'entrees Aux Mines,NA,NA,NA,NA,NA,NA,NA,NA,NA,NA,NA,NA,NA,NA,NA,NA,NA,NA,NA,NA,NA,NA,NA,NA,NA,NA,NA,NA,NA,NA,NA,NA,NA,NA,NA,NA,NA,NA,NA,NA,NA,NA,NA,NA,NA,NA,NA,NA,NA,NA,NA,NA,NA,NA,NA,NA,NA,NA,NA,NA,NA,NA,NA,NA,NA,NA,NA,NA,NA,NA,NA,NA,NA,NA,NA,NA,NA,NA,NA,NA
Johnston,Raoul,NA,NA,NA,NA,NA,NA,NA,NA,NA,NA,NA,NA,NA,NA,NA,NA,NA,NA,NA,NA,NA,NA,NA,NA,NA,NA,NA,NA,NA,NA,NA,NA,NA,NA,NA,NA,NA,NA,NA,NA,NA,NA,NA,NA,NA,NA,NA,NA,NA,NA,NA,NA,NA,Pb : Deux Dates Qui Ne Correspondent Pas,NA,NA,NA,NA,NA,NA,NA,NA,NA,NA,NA,NA,NA,NA,NA,NA,NA,NA,NA,NA,NA,NA,NA,NA,NA,NA,NA,NA,NA,NA,NA,NA,NA,NA,NA,NA,NA,NA,NA,NA,NA,NA,NA,NA,NA,NA,NA,NA,NA,NA,NA,NA,NA,NA,NA,NA,NA,NA,NA,NA,NA,NA,NA,NA,NA,NA,NA,NA,NA,NA,NA,NA,NA,NA,NA,NA,NA,NA,NA,NA
De Lasteyrie Du Saillant,Ferdinand,Non,Oui,Ingenieur; Membre De L'administration Des Ponts Et Chaussees; Aide Au Ministere De L'instruction Publique Et De L'interieur,Depute,Depute,1842,1848,32,Seine,NA,Depute,1848,1851,38,Seine,NA,NA,NA,NA,NA,NA,NA,NA,NA,NA,NA,NA,NA,NA,NA,NA,NA,NA,NA,NA,NA,NA,NA,NA,NA,Agronome; Philanthrope Francais Et Homme Politique,?,?,?,NA,NA,NA,NA,NA,NA,NA,NA,Proche De Mirabeau Et Lafayette : Soutient La Revolution Francaise. Famille Bourgeoise D'orientation Orleaniste,NA,NA,NA,NA,NA,NA,NA,NA,NA,NA,NA,NA,NA,NA,NA,NA,NA,NA,NA,NA,NA,NA,NA,NA,NA,NA,NA,NA,NA,NA,NA,NA,NA,NA,NA,NA,NA,NA,NA,NA,NA,NA,NA,NA,NA,NA,NA,NA,NA,NA,NA,NA,NA,NA,NA,NA,NA,NA,NA,NA,NA,NA,NA,NA,NA,NA,NA,NA,NA,NA,NA,NA,NA,NA,NA,NA,NA,NA,NA,NA,NA
Lebrun,Albert,Oui,Non,Ingenieur; Conseiller General; Depute; President Du Conseil General; Ministre Des Colonies; Senateur; President De La Republique,President De La Republique,Depute,1900,1920,29,Nancy,NA,Secretaire (A La Chambre),1903,1903,32,NA,NA,Vice-President De La Chambre,1913,1913,42,NA,NA,Ministre Des Colonies; Guerre; Regions Liberees,1911,1919,40,NA,NA,Senateur,1920,?,40,NA,NA,President De La Republique,1932,1936,61,NA,NA,Cultivateur; Maire,NA,NA,NA,NA,NA,NA,NA,NA,NA,NA,NA,NA,NA,NA,Oui,Oui,Meurthe Et Moselle,6,1900-1919,3r,1900,1902,Republicains Progressistes,1902,1906,Republicains Progressistes,1906,1910,Progressiste,1910,1914,Gauche Democratique,1914-1919 (Republicains De Gauche) Et 1919-1920 (Republicains De Gauche),2,1920,1924,9999,1924,1931,99999,NA,NA,NA,NA,Gauche,Senateur En 1920; President Du Senat En 1931; President De La Republique En 1932 Et Reelu En 1939.,Ernest Lebrun,Cultivateur,NA,NA,NA,Chevalier,NA,Lebrun Entre D'abord Au Conseil General (1898) Comme Representant Du Canton D'audun Le Romain. En 1900; Il Occupe Le Siege Que Lui Laissait Mezieres A Briey.,Les Deux,Nancy,Plein,1900,1930,President,1932,1940,Parti Des Republicains De Gauche,Pere Maire,NA,NA,NA,NA,NA,NA,NA,NA,NA,NA,NA,NA,Non,1896,1,Non,Non,Non,Non,Non,Non,NA,NA,NA,NA,Non,Oui,Republicains De Gauche," Albert Lebrun, Le Dernier President De La Iiie Republique,Freysselinard, 2013"
NA,NA,NA,NA,NA,NA,NA,NA,NA,NA,NA,NA,NA,NA,NA,NA,NA,NA,NA,NA,NA,NA,NA,NA,NA,NA,NA,NA,NA,NA,NA,NA,NA,NA,NA,NA,NA,NA,NA,NA,NA,NA,NA,NA,NA,NA,NA,NA,NA,NA,NA,NA,NA,NA,NA,NA,NA,NA,NA,NA,NA,NA,NA,NA,NA,NA,NA,NA,NA,NA,NA,NA,NA,NA,NA,NA,NA,NA,NA,NA,NA,NA,NA,NA,NA,NA,NA,NA,NA,NA,NA,NA,NA,NA,NA,NA,NA,NA,NA,NA,NA,NA,NA,NA,NA,NA,NA,NA,NA,NA,NA,NA,NA,NA,NA,NA,NA,NA,NA,NA,NA,NA,NA,NA,NA,NA,NA,NA,NA,NA,NA,NA,NA,NA,NA,NA
Lefevre,Andre,NA,NA,Elu Au Conseil Municipal Du Quartier Sorbonne; President Du Conseil Municipal De Paris; President Duconseil Municipal De La Seine; Depute; Sous Secretaire D'etat Aux Finances; Ingenieur Militaire; Ministre De La Guerre; Vice President De La Chambre,Ministre De La Guerre,Depute,1910,1914,41,Bouches-Du-Rhones,NA,Depute,1914,1919,45,Bouches-Du-Rhones,NA,Depute,1919,1924,50,Bouches-Du-Rhones,NA,Sous Secretaire D'etat,1910,1911,41,NA,NA,Ministre De La Guerre,1920,1920,51,NA,NA,NA,NA,NA,NA,NA,NA,Ingenieur,Ingenieur,NA,NA,NA,NA,NA,NA,NA,NA,NA,NA,NA,NA,NA,NA,NA,NA,NA,NA,NA,NA,NA,NA,NA,NA,NA,NA,NA,NA,NA,NA,NA,NA,NA,NA,NA,NA,NA,NA,NA,NA,NA,NA,NA,NA,NA,NA,NA,NA,NA,NA,NA,NA,NA,NA,NA,NA,NA,NA,NA,NA,NA,NA,NA,NA,NA,NA,NA,NA,NA,NA,NA,NA,NA,NA,NA,NA,NA,NA,NA,NA,NA,NA,NA,NA,NA,NA,NA,NA,NA,NA,NA,NA
Lespes,Henri,Non,Oui,Ingenieur D'entreprise; Vice President Du Mrp; Depute,Depute,Depute,1945,1951,36,NA,NA,NA,NA,NA,NA,NA,NA,NA,NA,NA,NA,NA,NA,NA,NA,NA,NA,NA,NA,NA,NA,NA,NA,NA,NA,NA,NA,NA,NA,NA,NA,Inspecteurde L'enseignement Primaire,Inspecteur De L'enseignement Primaire,NA,NA,NA,NA,NA,NA,NA,NA,NA,NA,NA,NA,NA,NA,NA,NA,NA,NA,NA,NA,NA,NA,NA,NA,NA,NA,NA,NA,NA,NA,NA,NA,NA,NA,NA,NA,NA,NA,NA,NA,NA,NA,NA,NA,NA,NA,NA,NA,NA,NA,NA,NA,NA,NA,NA,NA,NA,NA,NA,NA,NA,NA,NA,NA,NA,NA,NA,NA,NA,NA,NA,NA,NA,NA,NA,Non,1832,23,Non,Non,Non,Non,Non,Non,NA,NA,NA,NA,Oui,Non,NA,Annales
Laur,Joseph,Oui,Non,Ingenieur En Chef De 1ere Classe; Depute ??????,NA,NA,NA,NA,NA,NA,NA,NA,NA,NA,NA,NA,NA,NA,NA,NA,NA,NA,NA,NA,NA,NA,NA,NA,NA,NA,NA,NA,NA,NA,NA,NA,NA,NA,NA,NA,NA,NA,NA,NA,NA,NA,NA,NA,NA,NA,NA,NA,NA,NA,Gros Probleme : Sur Le Site Annales.com; Il Y A Marque Qu'il S'appelle Francis Laur Et Quand On Clique Dessus; On Tombe Sur Joseph Paul Laur,NA,NA,NA,NA,NA,NA,NA,NA,NA,NA,NA,NA,NA,NA,NA,NA,NA,NA,NA,NA,NA,NA,NA,NA,NA,NA,NA,NA,NA,NA,NA,NA,NA,NA,NA,NA,NA,NA,NA,NA,NA,NA,NA,NA,NA,NA,NA,NA,NA,NA,NA,NA,NA,NA,NA,NA,NA,NA,NA,NA,NA,NA,NA,NA,NA,NA,NA,NA,NA,NA,NA,NA,NA,NA,NA,NA,NA,NA,NA,NA
Loos,Francois,Oui,Non,Ingenieur En Entreprise; Conseiller Technique; Directeur D'usine; Secretaire General De La Recherche Du Rhone Poulenc; Directeur General; Conseiller Regional; Depute; Ministre Delegue A La Recherche; Ministre Du Commerce Exterieur; Ministre Delegue A L'industrie,Ministre Delegue,Depute,1993,1997,40,Bas-Rhin,8,Depute,1997,2002,44,Bas-Rhin,8,Depute,2002,2002,49,Bas-Rhin,NA,Depute,2007,2011,54,Bas-Rhin,9,Ministre Delegue A L'enseignement Superieur Et A La Recherche,2002,2002,49,NA,NA,Ministre Delegue Au Commerce Exterieur,2002,2005,49,NA,NA,NA,NA,NA,NA,NA,NA,NA,NA,NA,NA,NA,NA,Dea En Mathematiques,Manque Un Mandat + Titulaire D'un Dea En Mathematiques,NA,Oui,Non,Bas-Rhin,4,1993-2011,5r,1993,1997,Union Pour La Democratie Francaise Et Du Centre,1997,2002,Udf,2002,2002,Union Pour La Majorite Presidentielle,2007,2011,Ump,NA,NA,NA,NA,NA,NA,NA,NA,NA,NA,NA,NA,Conservateurs,Ministre Delegue A L'enseignement Superieur Et A La Recherche (2002); Ministre Delegue Au Commerce Exterieur (2002-2005); Ministre Delegue A L'industrie (2005-2007); Conseiller Municipal De Strasbourg (2014-Ajd),NA,NA,NA,NA,NA,Chevalier,NA,NA,Depute,8e Circonscription Du Bas-Rhin,4,1993,2011,Ministre,2002,2007,Parti Republicain Radical,NA,Wikipedia,NA,NA,NA,NA,NA,NA,NA,NA,NA,NA,NA,NA,NA,NA,Non,Non,Non,Non,Non,Non,NA,NA,NA,NA,Non,Oui,Ump,Wikipedia
De Martha-Becker,Felix,Oui,Non,Conseiller General Du Canton D'aigueperse; Depute; Secretaire Du Conseil General Du Puy De Dome; Vice President De L'academie De Clermont,Depute,Depute,1846,1848,38,Puy De Dome,NA,NA,NA,NA,NA,NA,NA,NA,NA,NA,NA,NA,NA,NA,NA,NA,NA,NA,NA,NA,NA,NA,NA,NA,NA,NA,NA,NA,NA,NA,NA,Greffier De Tribunal De Commerce A Strasbourg,NA,NA,NA,NA,NA,NA,NA,NA,NA,NA,NA,Neveu Du General Leonard Nicolas Becker; Depute Du Puy De Dome,NA,NA,NA,NA,NA,NA,NA,NA,NA,NA,NA,NA,NA,NA,NA,NA,NA,NA,NA,NA,NA,NA,NA,NA,NA,NA,NA,NA,NA,NA,NA,NA,NA,NA,NA,NA,NA,NA,NA,NA,NA,NA,NA,NA,NA,NA,NA,NA,NA,NA,NA,NA,NA,NA,NA,NA,NA,NA,NA,NA,NA,NA,NA,NA,Oui,1833,NA,Oui,Non,Oui,Non,Non,Non,NA,NA,NA,NA,Non,Oui,Conservateur,NA
De Martha-Becker,Felix,Oui,Non,Conseiller General Du Canton D'aigueperse; Depute; Secretaire Du Conseil General Du Puy De Dome; Vice President De L'academie De Clermont,Depute,Depute,1846,1848,38,Puy De Dome,NA,NA,NA,NA,NA,NA,NA,NA,NA,NA,NA,NA,NA,NA,NA,NA,NA,NA,NA,NA,NA,NA,NA,NA,NA,NA,NA,NA,NA,NA,NA,Greffier De Tribunal De Commerce A Strasbourg,NA,NA,NA,NA,NA,NA,NA,NA,NA,NA,NA,Neveu Du General Leonard Nicolas Becker; Depute Du Puy De Dome,NA,NA,NA,NA,NA,NA,NA,NA,NA,NA,NA,NA,NA,NA,NA,NA,NA,NA,NA,NA,NA,NA,NA,NA,NA,NA,NA,NA,NA,NA,NA,NA,NA,NA,NA,NA,NA,NA,NA,NA,NA,NA,NA,NA,NA,NA,NA,NA,NA,NA,NA,NA,NA,NA,NA,NA,NA,NA,NA,NA,NA,NA,NA,NA,NA,NA,12,Oui,Non,Oui,Non,Non,Non,NA,NA,NA,NA,Non,Oui,Conservateur,Annales
Martenot,Charles,Non,Oui,Directeur Des Usines Du Chatillonnais; Directeur Des Usines De Commentry; Depute; Senateur,Senateur,Depute,1871,1876,44,Allier,NA,Senateur,1876,1885,49,Allier,NA,NA,NA,NA,NA,NA,NA,NA,NA,NA,NA,NA,NA,NA,NA,NA,NA,NA,NA,NA,NA,NA,NA,NA,NA,NA,NA,NA,NA,NA,NA,NA,NA,NA,NA,NA,NA,Neveu D'auguste Martenot; Depute De L'yonne,NA,NA,NA,NA,NA,NA,NA,NA,NA,NA,NA,NA,NA,NA,NA,NA,NA,NA,NA,NA,NA,NA,NA,NA,NA,NA,NA,NA,NA,NA,NA,NA,NA,NA,NA,NA,NA,NA,NA,NA,NA,NA,NA,NA,NA,NA,NA,NA,NA,NA,NA,NA,NA,NA,NA,NA,NA,NA,NA,NA,NA,NA,NA,NA,NA,NA,NA,NA,NA,NA,NA,NA,NA,NA,NA,NA,NA,NA,NA,NA,NA
Masson,Jean-Louis,Non,Oui,Charge D'etude A La Direction De La Prevision Du Ministere Des Finances; Enseignant A L'ecole Des Mines De Nancy; Conseiller Regional De La Moselle; Conseiller Municipal De Metz; Depute; Senateur,Senateur,Depute,1978,1981,31,Moselle,NA,Depute,1981,1986,34,Moselle,NA,Depute,1986,1988,39,Moselle,NA,Depute,1988,1993,41,Moselle,NA,Depute,1993,1997,46,Moselle,NA,Depute,1997,2002,50,Moselle,NA,NA,NA,NA,NA,NA,NA,NA,NA,NA,NA,NA,NA,NA,Rajouter Absolument Son Mandat De Senateur,NA,Oui,Oui,Moselle,6,1978-2023,5r,1978,1981,Rpr,1981,1986,Rpr,1986,1988,Rpr,1988,1993,Rpr,1993-2002,3,2001,2007,Democratie Et Republique,2011,2017,Democratie Et Republique,2017,2023,Democratie Et Republique,NA,Conservateurs,Conseiller Municipal De Metz (1989-2001); Conseiller General De La Moselle (1976-2015),NA,NA,NA,NA,NA,Non,NA,President Du Micro-Parti Democratie Et Republique,NA,NA,NA,NA,NA,NA,NA,NA,NA,NA,NA,NA,NA,NA,NA,NA,NA,NA,NA,NA,NA,NA,NA,NA,NA,NA,NA,NA,NA,NA,NA,NA,NA,NA,NA,Oui,Non,Rpr Puis Ump,Annales
Masson,Jean-Louis,Non,Oui,Charge D'etude A La Direction De La Prevision Du Ministere Des Finances; Enseignant A L'ecole Des Mines De Nancy; Conseiller Regional De La Moselle; Conseiller Municipal De Metz; Depute; Senateur,Senateur,Depute,1978,1981,31,Moselle,NA,Depute,1981,1986,34,Moselle,NA,Depute,1986,1988,39,Moselle,NA,Depute,1988,1993,41,Moselle,NA,Depute,1993,1997,46,Moselle,NA,Depute,1997,2002,50,Moselle,NA,NA,NA,NA,NA,NA,NA,NA,NA,NA,NA,NA,NA,NA,Rajouter Absolument Son Mandat De Senateur,NA,Oui,Oui,Moselle,6,1978-2023,5r,1978,1981,Rpr,1981,1986,Rpr,1986,1988,Rpr,1988,1993,Rpr,1993-2002,3,2001,2007,Democratie Et Republique,2011,2017,Democratie Et Republique,2017,2023,Democratie Et Republique,NA,Conservateurs,Conseiller Municipal De Metz (1989-2001); Conseiller General De La Moselle (1976-2015),NA,NA,NA,NA,NA,Non,NA,President Du Micro-Parti Democratie Et Republique,NA,NA,NA,NA,NA,NA,NA,NA,NA,NA,NA,NA,NA,NA,NA,NA,NA,NA,NA,NA,NA,NA,Non,NA,NA,Non,Non,Non,Non,Non,Non,NA,NA,NA,NA,Oui,Non,Droite,Annales
Mony,Christophe,NA,NA,Ingenieur; Dirigeant De La Societede Commentry-Fourchambault; Maire; Depute,Depute,Maire,1866,?,66,Commentry,NA,Depute,1868,1869,68,Allier,3,Depute,1869,1870,69,Allier,NA,NA,NA,NA,NA,NA,NA,NA,NA,NA,NA,NA,NA,NA,NA,NA,NA,NA,NA,Procureur; Affairiste,Procureur,NA,NA,NA,NA,Introduit L'industrie Du Coton A Lyon,NA,NA,NA,NA,NA,NA,NA,NA,NA,NA,NA,NA,NA,NA,NA,NA,NA,NA,NA,NA,NA,NA,NA,NA,NA,NA,NA,NA,NA,NA,NA,NA,NA,NA,NA,NA,NA,NA,NA,NA,NA,NA,NA,NA,NA,NA,NA,NA,NA,NA,NA,NA,NA,NA,NA,NA,NA,NA,NA,NA,NA,NA,NA,NA,NA,NA,NA,NA,NA,NA,NA,NA,NA,NA,NA,NA,NA,NA,NA,NA,NA,NA,NA,NA,NA,NA,NA
Nisse,Robert,Non,Oui,"Directeur Adjoint Du Pool Des Carburants; President Du Groupe ""Defense Des Sinistres Et Des Victimes De Guerre""; Depute",Depute,Depute,1946,1946,46,Nord,NA,Depute,1946,1951,46,Nord,NA,Depute,1951,1955,51,Nord,NA,Depute,1956,1958,56,Nord,NA,NA,NA,NA,NA,NA,NA,NA,NA,NA,NA,NA,NA,Sous-Officier; Percepteur,Percepteur,NA,NA,NA,NA,NA,NA,NA,NA,NA,NA,Sa Mere Est Directrice D'ecole,Doctorant En Droit,NA,NA,NA,NA,NA,NA,NA,NA,NA,NA,NA,NA,NA,NA,NA,NA,NA,NA,NA,NA,NA,NA,NA,NA,NA,NA,NA,NA,NA,NA,NA,NA,NA,NA,NA,NA,NA,NA,NA,NA,NA,NA,NA,NA,NA,NA,NA,NA,NA,NA,NA,NA,NA,NA,NA,NA,NA,NA,NA,NA,NA,NA,NA,Non,NA,1,Non,Non,Non,Non,Non,Non,NA,NA,NA,NA,Oui,Non,NA,Annales
Pebellier,Eugene-Gaston,Non,Oui,NA,NA,NA,NA,NA,NA,NA,NA,NA,NA,NA,NA,NA,NA,NA,NA,NA,NA,NA,NA,NA,NA,NA,NA,NA,NA,NA,NA,NA,NA,NA,NA,NA,NA,NA,NA,NA,NA,NA,NA,NA,NA,NA,NA,NA,NA,NA,NA,NA,NA,NA,NA,NA,NA,NA,NA,NA,NA,NA,NA,NA,NA,NA,NA,NA,NA,NA,NA,NA,NA,NA,NA,NA,NA,NA,NA,NA,NA,NA,NA,NA,NA,NA,NA,NA,NA,NA,NA,NA,NA,NA,NA,NA,NA,NA,NA,NA,NA,NA,NA,NA,NA,NA,NA,NA,NA,NA,NA,NA,NA,NA,NA,NA,NA,NA,NA,NA,NA,Non,Non,Non,Non,Non,Non,NA,NA,NA,NA,Oui,Non,Republicains Independants,Annales
Beral,Bernard,NA,NA,NA,NA,NA,NA,NA,NA,NA,NA,NA,NA,NA,NA,NA,NA,NA,NA,NA,NA,NA,NA,NA,NA,NA,NA,NA,NA,NA,NA,NA,NA,NA,NA,NA,NA,NA,NA,NA,NA,NA,NA,NA,NA,NA,NA,NA,NA,NA,NA,NA,NA,NA,NA,NA,Non,Oui,Lot,3,1883-1909,3r,1883,1888,Union Republicaine,1888,1897,999999,1906,1909,999999,NA,NA,NA,NA,NA,NA,NA,NA,NA,NA,NA,NA,NA,NA,NA,Centre Republicain,Conseil D'etat De 1875 A 1883,Jean-Baptiste Beral,Avocat,NA,NA,NA,Chevalier,NA,Il Est Connu Pour Avoir Ete Charge D'une Mission Speciale Sur Les Projets De Loi Relatifs Aux Mines (1884),NA,NA,NA,NA,NA,NA,NA,NA,NA,NA,NA,NA,NA,NA,NA,NA,NA,NA,NA,NA,NA,NA,NA,NA,NA,NA,NA,NA,NA,NA,NA,NA,NA,NA,NA,NA,NA,NA,NA
Blavier,Aime-Etienne,NA,NA,NA,NA,NA,NA,NA,NA,NA,NA,NA,NA,NA,NA,NA,NA,NA,NA,NA,NA,NA,NA,NA,NA,NA,NA,NA,NA,NA,NA,NA,NA,NA,NA,NA,NA,NA,NA,NA,NA,NA,NA,NA,NA,NA,NA,NA,NA,NA,NA,NA,NA,NA,NA,NA,Non,Oui,Maine Et Loire,2,1884-1896,3r,1884,1888,Conservateur,1888,1896,Conservateur,NA,NA,NA,NA,NA,NA,NA,NA,NA,NA,NA,NA,NA,NA,NA,NA,NA,NA,Conservateurs,NA,Edouard Leroy,Ingenieur Des Mines,NA,NA,NA,Officier,NA,Fils; Petit-Fils Et Neveu D'ingenieur Des Mines,NA,NA,NA,NA,NA,NA,NA,NA,NA,NA,NA,NA,NA,NA,NA,NA,NA,NA,NA,NA,NA,NA,Non,NA,NA,Oui,Non,Non,Non,Non,Non,2,5,1849,2eme Republique,Non,Oui,NA,NA
De Saulces De Freycinet,Charles-Louis,NA,NA,NA,NA,NA,NA,NA,NA,NA,NA,NA,NA,NA,NA,NA,NA,NA,NA,NA,NA,NA,NA,NA,NA,NA,NA,NA,NA,NA,NA,NA,NA,NA,NA,NA,NA,NA,NA,NA,NA,NA,NA,NA,NA,NA,NA,NA,NA,NA,NA,NA,NA,NA,NA,NA,Non,Oui,Seine,5,1876-,3r,NA,NA,NA,NA,NA,NA,NA,NA,NA,NA,NA,NA,NA,5,1876,1882,999999,1882,1891,999999,1891,1900,999999,1900-1909;1909-1920,Non Affilie,President Du Conseil; Ministre Des Affaires Etrangeres; Ministre De La Guerre; Ministre Des Travaux Publics; Conseiller Regional,Casimir De Saulces De Freycinet,Controleur Des Impots,NA,NA,NA,Officier,Academie Francaise Et Academie Des Sciences,Participe A La Multiplication Des Lignes De Chemin De Fer (Plan Freyssinet) Et Modernisation De L'armee,NA,NA,NA,NA,NA,NA,NA,NA,NA,NA,NA,NA,NA,NA,NA,NA,NA,NA,NA,NA,NA,NA,NA,NA,NA,NA,NA,NA,NA,NA,NA,NA,NA,NA,NA,NA,NA,NA,NA
Laffitte,Pierre,NA,NA,NA,NA,NA,NA,NA,NA,NA,NA,NA,NA,NA,NA,NA,NA,NA,NA,NA,NA,NA,NA,NA,NA,NA,NA,NA,NA,NA,NA,NA,NA,NA,NA,NA,NA,NA,NA,NA,NA,NA,NA,NA,NA,NA,NA,NA,NA,NA,NA,NA,NA,NA,NA,NA,Non,Oui,Alpes-Maritimes,3,1985-2008,5r,NA,NA,NA,NA,NA,NA,NA,NA,NA,NA,NA,NA,NA,NA,1985,1989,Parti Radical,1989,1998,Parti Radical,1998,2008,Parti Radical,NA,Centre Republicain,Autres Fonctions Politiques,Jean Laffitte,Artiste Peintre,NA,NA,NA,Officier,"Officier De L'ordre National Du Merite; Commandeur De L'ordre Royal De L'etoile Polaire (Suede); Commandeur De L'ordre Du Merite De La Rfa; Prix De Gaulle-Adenauer; Prix Du Promoteur De La Societe De L'information (2004); Docteur Honoris Causa De La Colorado School Of Mines Et De L'open University Britannique
",Sous-Directeur; Directeur Puis President De L'ecole Des Mines,Senateur,Alpes-Maritimes,3,1985,2008,NA,NA,NA,Parti Radical,NA,NA,NA,NA,NA,NA,NA,NA,NA,NA,NA,NA,NA,NA,NA,NA,NA,NA,NA,NA,NA,NA,NA,NA,NA,NA,NA,NA,NA,NA
Sens,Edouard,NA,NA,NA,NA,NA,NA,NA,NA,NA,NA,NA,NA,NA,NA,NA,NA,NA,NA,NA,NA,NA,NA,NA,NA,NA,NA,NA,NA,NA,NA,NA,NA,NA,NA,NA,NA,NA,NA,NA,NA,NA,NA,NA,NA,NA,NA,NA,NA,NA,NA,NA,NA,NA,NA,NA,Oui,Non,Pas De Calais,4,1866-1889,2e; 3r,1866,1869,Majorite Dynastique,1869,1870,Centre Droit,1874,1876,Appel Au Peuple,1877,1878,Appel Au Peuple,1885-1889 (Union Des Droites),NA,NA,NA,NA,NA,NA,NA,NA,NA,NA,NA,Conservateurs,NA,Christian Joseph Sens,Marchand De Charbon; Chef De Bureau A La Prefecture,NA,NA,NA,Chevalier,Officier De L'instruction Publique (1868); Croix De Leopold De Belgique (1864); Commandeur Du Medjidie Et Du Soleil De Perse (1870); Commandeur Du Medjidie De Turquie (1875) Commandeur Avec Plaque De Charles Iii D'espagne (1870-1874) Chevalier Du Saint-Sepulcre (1871),NA,Depute,62,4,1866,1889,NA,NA,NA,Groupe Bonapartiste,NA,NA,NA,NA,NA,NA,NA,NA,NA,NA,NA,NA,NA,Non,NA,5,Oui,Oui,Non,Non,Non,Non,NA,NA,1869,2nd Empire,Non,Oui,Bonapartiste,Catherine Menec-Frenoy
Sens,Edouard,NA,NA,NA,NA,NA,NA,NA,NA,NA,NA,NA,NA,NA,NA,NA,NA,NA,NA,NA,NA,NA,NA,NA,NA,NA,NA,NA,NA,NA,NA,NA,NA,NA,NA,NA,NA,NA,NA,NA,NA,NA,NA,NA,NA,NA,NA,NA,NA,NA,NA,NA,NA,NA,NA,NA,Oui,Non,Pas De Calais,4,1866-1889,2e; 3r,1866,1869,Majorite Dynastique,1869,1870,Centre Droit,1874,1876,Appel Au Peuple,1877,1878,Appel Au Peuple,1885-1889 (Union Des Droites),NA,NA,NA,NA,NA,NA,NA,NA,NA,NA,NA,Conservateurs,NA,Christian Joseph Sens,Marchand De Charbon; Chef De Bureau A La Prefecture,NA,NA,NA,Chevalier,Officier De L'instruction Publique (1868); Croix De Leopold De Belgique (1864); Commandeur Du Medjidie Et Du Soleil De Perse (1870); Commandeur Du Medjidie De Turquie (1875) Commandeur Avec Plaque De Charles Iii D'espagne (1870-1874) Chevalier Du Saint-Sepulcre (1871),NA,Depute,62,4,1866,1889,NA,NA,NA,Groupe Bonapartiste,NA,NA,NA,NA,NA,NA,NA,NA,NA,NA,NA,NA,NA,NA,NA,5,Oui,Non,Non,Non,Non,Non,NA,NA,NA,NA,Non,Oui,NA,Catherine Menec-Frenoy
Stoleru,Lionel,NA,NA,NA,NA,NA,NA,NA,NA,NA,NA,NA,NA,NA,NA,NA,NA,NA,NA,NA,NA,NA,NA,NA,NA,NA,NA,NA,NA,NA,NA,NA,NA,NA,NA,NA,NA,NA,NA,NA,NA,NA,NA,NA,NA,NA,NA,NA,NA,NA,NA,NA,NA,NA,NA,NA,Oui,Non,Oise,1,1988-1998,5r,1988,1988,Parti Socialiste,1993,1998,NA,NA,NA,NA,NA,NA,NA,NA,NA,NA,NA,NA,NA,NA,NA,NA,NA,NA,NA,Gauche,Secretaire D'etat Aupres Du Ministre Du Travail (Condition Des Travailleurs Manuels; Puis Travailleurs Manuels Et Immigres) Sous Chirac (1976) Et Barre (1976-81).Preside Le Conseil D'analyse Economique Sous Raffarin (Bq Il Soit Membre Des Radicaux De Gauche).,Elie Stoleru,Directeur Technique Des Brasseries De La Meuse,NA,NA,NA,Commandeur,NA,"Nomination Au Gouvernement Rocard D'ou Sa Demission De Son 1er Mandat;  Chef D'orchestre; A Fonde Le Genepi Avec Badinter; Contribue A La Mise En Place Du Revenu Minimum D'insertion (Rmi). Auteur De Plusieurs Ouvrages.  
President De La Chambre De Commerce France-Israel",Depute,Oise,2,1988,1998,NA,NA,NA,Parti Radical-Socialiste,NA,Wikipedia,NA,NA,NA,NA,NA,NA,NA,NA,NA,NA,NA,NA,NA,NA,NA,NA,NA,NA,NA,NA,NA,NA,NA,NA,NA,NA,NA,NA
Ulrich,Jacques,NA,NA,NA,NA,NA,NA,NA,NA,NA,NA,NA,NA,NA,NA,NA,NA,NA,NA,NA,NA,NA,NA,NA,NA,NA,NA,NA,NA,NA,NA,NA,NA,NA,NA,NA,NA,NA,NA,NA,NA,NA,NA,NA,NA,NA,NA,NA,NA,NA,NA,NA,NA,NA,NA,NA,Oui,Non,Tarn Et Garonne,1,1932-1933,3r,1932,1933,Gauche Radicale,NA,NA,NA,NA,NA,NA,NA,NA,NA,NA,NA,NA,NA,NA,NA,NA,NA,NA,NA,NA,NA,Gauche,President Du Conseil D'administration Du Metropolitain De Paris,Raimond Ulrich,Industriel,NA,NA,NA,Commandeur,NA,NA,NA,NA,NA,NA,NA,NA,NA,NA,NA,NA,NA,NA,NA,NA,NA,NA,NA,NA,NA,NA,NA,NA,NA,NA,5,Oui,Non,Non,Oui,Non,Non,NA,NA,NA,NA,Non,Oui,Parti Republicain,Annales
Vernier,Jacques,NA,NA,NA,NA,NA,NA,NA,NA,NA,NA,NA,NA,NA,NA,NA,NA,NA,NA,NA,NA,NA,NA,NA,NA,NA,NA,NA,NA,NA,NA,NA,NA,NA,NA,NA,NA,NA,NA,NA,NA,NA,NA,NA,NA,NA,NA,NA,NA,NA,NA,NA,NA,NA,NA,NA,Oui,Non,Nord,1,1993-1997,5r,1993,1997,Rpr,NA,NA,NA,NA,NA,NA,NA,NA,NA,NA,NA,NA,NA,NA,NA,NA,NA,NA,NA,NA,NA,Conservateurs,Maire De Douai (1983-2014); Depute Europeen (1984-1989 Et 1989-1993 : Groupe Du Rassemblement Des Democrates Europeens),NA,NA,NA,NA,NA,Officier,Commandeur De L'ordre National Du Merite; Officier Des Palmes Academiques,President Du Conseil D'administration De L'ineris (2003-2010); President Du Conseil Superieur De La Prevention Des Risques Technologiques; Presidence De La Commission Des Filieres De Responsabilite Elargie Des Producteurs (Rep) De Dechets Depuis 2016.,Depute,17e Circonscription Du Nord,1,1993,1997,Maire De Douai,1983,2014,Rpr,NA,Wikipedia,NA,NA,NA,NA,NA,NA,NA,NA,NA,NA,NA,NA,NA,NA,Non,Non,Non,Non,Non,Non,NA,NA,NA,NA,Non,Oui,NA,Annales
Wickersheimer,Charles,NA,NA,NA,NA,NA,NA,NA,NA,NA,NA,NA,NA,NA,NA,NA,NA,NA,NA,NA,NA,NA,NA,NA,NA,NA,NA,NA,NA,NA,NA,NA,NA,NA,NA,NA,NA,NA,NA,NA,NA,NA,NA,NA,NA,NA,NA,NA,NA,NA,NA,NA,NA,NA,NA,NA,Oui,Non,Aude,2,1885-1894,3r,1885,1889,Republicain Radical,1893,1894,Republicain Radical,NA,NA,NA,NA,NA,NA,NA,NA,NA,NA,NA,NA,NA,NA,NA,NA,NA,NA,Centre Republicain,NA,Charles Wickersheimer,Instituteur,NA,NA,NA,Officier,NA,Franc-Macon,Depute,Aude,2,1885,1893,NA,NA,NA,Liste Republicaine Radicale,NA,NA,NA,NA,NA,NA,NA,NA,NA,NA,NA,NA,NA,Non,1874,3,Oui,Non,Oui,Non,Non,Non,NA,NA,NA,NA,Non,Oui,Republicain-Radical,NA
Masson,Jean,NA,NA,NA,NA,NA,NA,NA,NA,NA,NA,NA,NA,NA,NA,NA,NA,NA,NA,NA,NA,NA,NA,NA,NA,NA,NA,NA,NA,NA,NA,NA,NA,NA,NA,NA,NA,NA,NA,NA,NA,NA,NA,NA,NA,NA,NA,NA,NA,NA,NA,NA,NA,NA,NA,NA,NA,NA,NA,NA,NA,NA,NA,NA,NA,NA,NA,NA,NA,NA,NA,NA,NA,NA,NA,NA,NA,NA,NA,NA,NA,NA,NA,NA,NA,NA,NA,NA,NA,NA,NA,NA,NA,NA,NA,NA,Les Deux,Moselle,Plein,1978,En Cours,Conseiller Regional,1978,2001,Ump,NA,Wikipedia,NA,NA,NA,NA,NA,NA,NA,NA,NA,NA,NA,NA,NA,NA,NA,NA,NA,NA,NA,NA,NA,NA,NA,NA,NA,NA,NA,NA
Ulrich,Marcel,NA,NA,NA,NA,NA,NA,NA,NA,NA,NA,NA,NA,NA,NA,NA,NA,NA,NA,NA,NA,NA,NA,NA,NA,NA,NA,NA,NA,NA,NA,NA,NA,NA,NA,NA,NA,NA,NA,NA,NA,NA,NA,NA,NA,NA,NA,NA,NA,NA,NA,NA,NA,NA,NA,NA,NA,NA,NA,NA,NA,NA,NA,NA,NA,NA,NA,NA,NA,NA,NA,NA,NA,NA,NA,NA,NA,NA,NA,NA,NA,NA,NA,NA,NA,NA,NA,NA,NA,NA,NA,NA,NA,NA,NA,NA,Depute,Tarn Et Garonne,1,1932,1933,NA,1919,1930,Parti Republicain Radical,NA,NA,NA,NA,NA,NA,NA,NA,NA,NA,NA,NA,NA,NA,NA,NA,NA,NA,NA,NA,NA,NA,NA,NA,NA,NA,NA,NA,NA,NA
Beral,Eloi,NA,NA,NA,NA,NA,NA,NA,NA,NA,NA,NA,NA,NA,NA,NA,NA,NA,NA,NA,NA,NA,NA,NA,NA,NA,NA,NA,NA,NA,NA,NA,NA,NA,NA,NA,NA,NA,NA,NA,NA,NA,NA,NA,NA,NA,NA,NA,NA,NA,NA,NA,NA,NA,NA,NA,NA,NA,NA,NA,NA,NA,NA,NA,NA,NA,NA,NA,NA,NA,NA,NA,NA,NA,NA,NA,NA,NA,NA,NA,NA,NA,NA,NA,NA,NA,NA,NA,NA,NA,NA,NA,NA,NA,NA,NA,Senateur,Lot,4,1883,1908,NA,NA,NA,Republicain,NA,NA,NA,NA,NA,NA,NA,NA,NA,NA,NA,NA,NA,Non,NA,NA,Non,Non,Non,Non,Non,Non,NA,NA,NA,NA,Non,Oui,NA,NA
Blavier,Aime,NA,NA,NA,NA,NA,NA,NA,NA,NA,NA,NA,NA,NA,NA,NA,NA,NA,NA,NA,NA,NA,NA,NA,NA,NA,NA,NA,NA,NA,NA,NA,NA,NA,NA,NA,NA,NA,NA,NA,NA,NA,NA,NA,NA,NA,NA,NA,NA,NA,NA,NA,NA,NA,NA,NA,NA,NA,NA,NA,NA,NA,NA,NA,NA,NA,NA,NA,NA,NA,NA,NA,NA,NA,NA,NA,NA,NA,NA,NA,NA,NA,NA,NA,NA,NA,NA,NA,NA,NA,NA,NA,NA,NA,NA,NA,Senateur,Maine-Et-Loire,4,1885,1896,Maire D'angers,1874,1876,NA,NA,NA,NA,NA,NA,NA,NA,NA,NA,NA,NA,NA,NA,NA,NA,NA,NA,NA,NA,NA,NA,NA,NA,NA,NA,NA,NA,NA,NA,NA
De Freycinet,Charles,NA,NA,NA,NA,NA,NA,NA,NA,NA,NA,NA,NA,NA,NA,NA,NA,NA,NA,NA,NA,NA,NA,NA,NA,NA,NA,NA,NA,NA,NA,NA,NA,NA,NA,NA,NA,NA,NA,NA,NA,NA,NA,NA,NA,NA,NA,NA,NA,NA,NA,NA,NA,NA,NA,NA,NA,NA,NA,NA,NA,NA,NA,NA,NA,NA,NA,NA,NA,NA,NA,NA,NA,NA,NA,NA,NA,NA,NA,NA,NA,NA,NA,NA,NA,NA,NA,NA,NA,NA,NA,NA,NA,NA,NA,NA,Senateur,Seine,10,1876,1920,Ministre,1877,1916,Republicains Opportunistes,NA,NA,NA,NA,NA,NA,NA,NA,NA,NA,NA,NA,NA,NA,NA,NA,NA,NA,NA,NA,NA,NA,NA,NA,NA,NA,NA,NA,NA,NA
Mer,Francis,NA,NA,NA,NA,NA,NA,NA,NA,NA,NA,NA,NA,NA,NA,NA,NA,NA,NA,NA,NA,NA,NA,NA,NA,NA,NA,NA,NA,NA,NA,NA,NA,NA,NA,NA,NA,NA,NA,NA,NA,NA,NA,NA,NA,NA,NA,NA,NA,NA,NA,NA,NA,NA,NA,NA,NA,NA,NA,NA,NA,NA,NA,NA,NA,NA,NA,NA,NA,NA,NA,NA,NA,NA,NA,NA,NA,NA,NA,NA,NA,NA,NA,NA,NA,NA,NA,NA,NA,NA,NA,NA,NA,NA,NA,NA,NA,NA,NA,NA,NA,Ministre De L'economie,2002,2004,Divers Droite,NA,Wikipedia,NA,NA,NA,NA,NA,NA,NA,NA,NA,NA,NA,NA,NA,NA,NA,NA,NA,NA,NA,NA,NA,NA,NA,NA,NA,NA,NA,NA
Giraud,Andre,NA,NA,NA,NA,NA,NA,NA,NA,NA,NA,NA,NA,NA,NA,NA,NA,NA,NA,NA,NA,NA,NA,NA,NA,NA,NA,NA,NA,NA,NA,NA,NA,NA,NA,NA,NA,NA,NA,NA,NA,NA,NA,NA,NA,NA,NA,NA,NA,NA,NA,NA,NA,NA,NA,NA,NA,NA,NA,NA,NA,NA,NA,NA,NA,NA,NA,NA,NA,NA,NA,NA,NA,NA,NA,NA,NA,NA,NA,NA,NA,NA,NA,NA,NA,NA,NA,NA,NA,NA,NA,NA,NA,NA,NA,NA,NA,NA,NA,NA,NA,Ministre De L'industrie Puis De La Defense,1978,1988,Parti Republicain,NA,Wikipedia,NA,NA,NA,NA,NA,NA,NA,NA,NA,NA,NA,NA,NA,NA,NA,NA,NA,NA,NA,NA,NA,NA,NA,NA,NA,NA,NA,NA
Aimond,Emile Theodore,NA,NA,NA,NA,NA,NA,NA,NA,NA,NA,NA,NA,NA,NA,NA,NA,NA,NA,NA,NA,NA,NA,NA,NA,NA,NA,NA,NA,NA,NA,NA,NA,NA,NA,NA,NA,NA,NA,NA,NA,NA,NA,NA,NA,NA,NA,NA,NA,NA,NA,NA,NA,NA,NA,NA,NA,NA,NA,NA,NA,NA,NA,NA,NA,NA,NA,NA,NA,NA,NA,NA,NA,NA,NA,NA,NA,NA,NA,NA,NA,NA,NA,NA,NA,NA,NA,NA,NA,NA,NA,NA,NA,NA,NA,NA,NA,NA,NA,NA,NA,NA,NA,NA,NA,NA,NA,Les Deux,Seine Et Ouise,2 Depute Puis 1 Senateur,1896,1917,NA,NA,NA,Il Vote A Gauche,Fils Depute De Seine Et Oise De 1919 A 1923,Site De L'ecole Des Mines,NA,NA,NA,NA,NA,NA,NA,NA,NA,NA,NA,NA,NA,NA,NA,NA,NA
Boudenoot,Louis Charles Francois,NA,NA,NA,NA,NA,NA,NA,NA,NA,NA,NA,NA,NA,NA,NA,NA,NA,NA,NA,NA,NA,NA,NA,NA,NA,NA,NA,NA,NA,NA,NA,NA,NA,NA,NA,NA,NA,NA,NA,NA,NA,NA,NA,NA,NA,NA,NA,NA,NA,NA,NA,NA,NA,NA,NA,NA,NA,NA,NA,NA,NA,NA,NA,NA,NA,NA,NA,NA,NA,NA,NA,NA,NA,NA,NA,NA,NA,NA,NA,NA,NA,NA,NA,NA,NA,NA,NA,NA,NA,NA,NA,NA,NA,NA,NA,NA,NA,NA,NA,NA,NA,NA,NA,NA,NA,NA,Les Deux,62,2 Depute Puis 3 Senateur,1889,1922,Conseiller General Du Pas De Calais,1885,NA,Groupe De L'union Republicaine,NA,Site De L'ecole Des Mines,NA,NA,NA,NA,NA,NA,NA,NA,NA,NA,NA,NA,NA,NA,NA,NA,NA
Chaper,Pierre Achille Marie,NA,NA,NA,NA,NA,NA,NA,NA,NA,NA,NA,NA,NA,NA,NA,NA,NA,NA,NA,NA,NA,NA,NA,NA,NA,NA,NA,NA,NA,NA,NA,NA,NA,NA,NA,NA,NA,NA,NA,NA,NA,NA,NA,NA,NA,NA,NA,NA,NA,NA,NA,NA,NA,NA,NA,NA,NA,NA,NA,NA,NA,NA,NA,NA,NA,NA,NA,NA,NA,NA,NA,NA,NA,NA,NA,NA,NA,NA,NA,NA,NA,NA,NA,NA,NA,NA,NA,NA,NA,NA,NA,NA,NA,NA,NA,NA,NA,NA,NA,NA,NA,NA,NA,NA,NA,NA,Depute,Cote-D'or,NA,1849,NA,Prefet A Plusieurs Endroits,1830,1848,Il Siege A La Droite Monarchiste,Fils Depute De L'isere (1871-1876),Site De L'ecole Des Mines,NA,NA,NA,NA,NA,NA,NA,NA,NA,NA,NA,NA,NA,NA,NA,NA,NA
Garnier,Etienne Henri,NA,NA,NA,NA,NA,NA,NA,NA,NA,NA,NA,NA,NA,NA,NA,NA,NA,NA,NA,NA,NA,NA,NA,NA,NA,NA,NA,NA,NA,NA,NA,NA,NA,NA,NA,NA,NA,NA,NA,NA,NA,NA,NA,NA,NA,NA,NA,NA,NA,NA,NA,NA,NA,NA,NA,NA,NA,NA,NA,NA,NA,NA,NA,NA,NA,NA,NA,NA,NA,NA,NA,NA,NA,NA,NA,NA,NA,NA,NA,NA,NA,NA,NA,NA,NA,NA,NA,NA,NA,NA,NA,NA,NA,NA,NA,NA,NA,NA,NA,NA,NA,NA,NA,NA,NA,NA,Depute,Yonne,NA,NA,NA,Prefet A Plusieurs Endroits,1859,NA,NA,Son Pere Etait Maire De Vassy,Site De L'ecole Des Mines,NA,NA,NA,NA,NA,NA,NA,NA,NA,NA,NA,NA,NA,NA,NA,NA,NA
Johnston,Nathaniel,NA,NA,NA,NA,NA,NA,NA,NA,NA,NA,NA,NA,NA,NA,NA,NA,NA,NA,NA,NA,NA,NA,NA,NA,NA,NA,NA,NA,NA,NA,NA,NA,NA,NA,NA,NA,NA,NA,NA,NA,NA,NA,NA,NA,NA,NA,NA,NA,NA,NA,NA,NA,NA,NA,NA,NA,NA,NA,NA,NA,NA,NA,NA,NA,NA,NA,NA,NA,NA,NA,NA,NA,NA,NA,NA,NA,NA,NA,NA,NA,NA,NA,NA,NA,NA,NA,NA,NA,NA,NA,NA,NA,NA,NA,NA,NA,NA,NA,NA,NA,NA,NA,NA,NA,NA,NA,Depute,Gironde,2,1869,1871,Conseiller General Du Pas De Calais,1866,NA,Il Siegea Au Centre,NA,Site De L'ecole Des Mines,NA,NA,NA,NA,NA,NA,NA,NA,NA,NA,NA,NA,NA,NA,NA,NA,NA
Levet,Georges,NA,NA,NA,NA,NA,NA,NA,NA,NA,NA,NA,NA,NA,NA,NA,NA,NA,NA,NA,NA,NA,NA,NA,NA,NA,NA,NA,NA,NA,NA,NA,NA,NA,NA,NA,NA,NA,NA,NA,NA,NA,NA,NA,NA,NA,NA,NA,NA,NA,NA,NA,NA,NA,NA,NA,NA,NA,NA,NA,NA,NA,NA,NA,NA,NA,NA,NA,NA,NA,NA,NA,NA,NA,NA,NA,NA,NA,NA,NA,NA,NA,NA,NA,NA,NA,NA,NA,NA,NA,NA,NA,NA,NA,NA,NA,NA,NA,NA,NA,NA,NA,NA,NA,NA,NA,NA,Depute,Loire,NA,1870,1910,Maire De Montbrison Et Vice-President Du Conseil General De La Loire,NA,NA,Groupe De L'union Republicaine Ou De La Gauche Radicale,NA,Site De L'ecole Des Mines,NA,NA,NA,NA,NA,NA,NA,NA,NA,NA,NA,NA,NA,NA,NA,NA,NA
Jules-Pernollet,Charles Claude Philibert Nicolas,NA,NA,NA,NA,NA,NA,NA,NA,NA,NA,NA,NA,NA,NA,NA,NA,NA,NA,NA,NA,NA,NA,NA,NA,NA,NA,NA,NA,NA,NA,NA,NA,NA,NA,NA,NA,NA,NA,NA,NA,NA,NA,NA,NA,NA,NA,NA,NA,NA,NA,NA,NA,NA,NA,NA,NA,NA,NA,NA,NA,NA,NA,NA,NA,NA,NA,NA,NA,NA,NA,NA,NA,NA,NA,NA,NA,NA,NA,NA,NA,NA,NA,NA,NA,NA,NA,NA,NA,NA,NA,NA,NA,NA,NA,NA,NA,NA,NA,NA,NA,NA,NA,NA,NA,NA,NA,Depute,Seine Et Ouise,NA,1871,1876,Maire Du Xiiie Arrondissement,1870,1872,Centre Gauche Et Gauche Republicaine,NA,Site De L'ecole Des Mines,NA,NA,NA,NA,NA,NA,NA,NA,NA,NA,NA,NA,NA,NA,NA,NA,NA
Bineau,Jean Martial,NA,NA,NA,NA,NA,NA,NA,NA,NA,NA,NA,NA,NA,NA,NA,NA,NA,NA,NA,NA,NA,NA,NA,NA,NA,NA,NA,NA,NA,NA,NA,NA,NA,NA,NA,NA,NA,NA,NA,NA,NA,NA,NA,NA,NA,NA,NA,NA,NA,NA,NA,NA,NA,NA,NA,NA,NA,NA,NA,NA,NA,NA,NA,NA,NA,NA,NA,NA,NA,NA,NA,NA,NA,NA,NA,NA,NA,NA,NA,NA,NA,NA,NA,NA,NA,NA,NA,NA,NA,NA,NA,NA,NA,NA,NA,NA,NA,NA,NA,NA,NA,NA,NA,NA,NA,NA,Depute,Angers,NA,1841,NA,Deux Fois Ministres: Des Travaux Publics En 1850 Et Des Finances En 1852,1850,NA,NA,NA,Site De L'ecole Des Mines,NA,NA,NA,NA,NA,NA,NA,NA,NA,NA,NA,NA,NA,NA,NA,NA,NA
Fleury,Jean Martial,NA,NA,NA,NA,NA,NA,NA,NA,NA,NA,NA,NA,NA,NA,NA,NA,NA,NA,NA,NA,NA,NA,NA,NA,NA,NA,NA,NA,NA,NA,NA,NA,NA,NA,NA,NA,NA,NA,NA,NA,NA,NA,NA,NA,NA,NA,NA,NA,NA,NA,NA,NA,NA,NA,NA,NA,NA,NA,NA,NA,NA,NA,NA,NA,NA,NA,NA,NA,NA,NA,NA,NA,NA,NA,NA,NA,NA,NA,NA,NA,NA,NA,NA,NA,NA,NA,NA,NA,NA,NA,NA,NA,NA,NA,NA,NA,NA,NA,NA,NA,NA,NA,NA,NA,NA,NA,Senateur,Hauts De Seine,1952,NA,NA,"Resistant, Conseiller Municipal De Neuilly Sur Seine, Premier Adjoint Au Maire, Conseiller General Des Hauts De Seine, Conseiller Regional",1947,1978,Udr,NA,Site De L'ecole Des Mines,NA,NA,NA,NA,NA,NA,NA,NA,NA,NA,NA,NA,NA,NA,NA,NA,NA
Le Play,Pierre Guillaume Frederic,NA,NA,NA,NA,NA,NA,NA,NA,NA,NA,NA,NA,NA,NA,NA,NA,NA,NA,NA,NA,NA,NA,NA,NA,NA,NA,NA,NA,NA,NA,NA,NA,NA,NA,NA,NA,NA,NA,NA,NA,NA,NA,NA,NA,NA,NA,NA,NA,NA,NA,NA,NA,NA,NA,NA,NA,NA,NA,NA,NA,NA,NA,NA,NA,NA,NA,NA,NA,NA,NA,NA,NA,NA,NA,NA,NA,NA,NA,NA,NA,NA,NA,NA,NA,NA,NA,NA,NA,NA,NA,NA,NA,NA,NA,NA,NA,NA,NA,NA,NA,NA,NA,NA,NA,NA,NA,Senateur,NA,1867,NA,NA,Conseiller D'etat,NA,NA,NA,Son Fils Devient Senateur,Site De L'ecole Des Mines,NA,NA,NA,NA,NA,NA,NA,NA,NA,NA,NA,NA,NA,NA,NA,NA,NA
Perier,Camille Joseph,NA,NA,NA,NA,NA,NA,NA,NA,NA,NA,NA,NA,NA,NA,NA,NA,NA,NA,NA,NA,NA,NA,NA,NA,NA,NA,NA,NA,NA,NA,NA,NA,NA,NA,NA,NA,NA,NA,NA,NA,NA,NA,NA,NA,NA,NA,NA,NA,NA,NA,NA,NA,NA,NA,NA,NA,NA,NA,NA,NA,NA,NA,NA,NA,NA,NA,NA,NA,NA,NA,NA,NA,NA,NA,NA,NA,NA,NA,NA,NA,NA,NA,NA,NA,NA,NA,NA,NA,NA,NA,NA,NA,NA,NA,NA,NA,NA,NA,NA,NA,NA,NA,NA,NA,NA,NA,NA,NA,NA,NA,NA,NA,NA,NA,NA,NA,Site De L'ecole Des Mines,NA,NA,NA,NA,NA,NA,NA,NA,NA,NA,NA,NA,NA,NA,NA,NA,NA
Riffault,Just Frederic,NA,NA,NA,NA,NA,NA,NA,NA,NA,NA,NA,NA,NA,NA,NA,NA,NA,NA,NA,NA,NA,NA,NA,NA,NA,NA,NA,NA,NA,NA,NA,NA,NA,NA,NA,NA,NA,NA,NA,NA,NA,NA,NA,NA,NA,NA,NA,NA,NA,NA,NA,NA,NA,NA,NA,NA,NA,NA,NA,NA,NA,NA,NA,NA,NA,NA,NA,NA,NA,NA,NA,NA,NA,NA,NA,NA,NA,NA,NA,NA,NA,NA,NA,NA,NA,NA,NA,NA,NA,NA,NA,NA,NA,NA,NA,NA,NA,NA,NA,NA,NA,NA,NA,NA,NA,NA,Senateur,Loir Et Chr,1,1876,1879,NA,NA,NA,NA,NA,Site De L'ecole Des Mines,NA,NA,NA,NA,NA,NA,NA,NA,NA,NA,NA,NA,NA,NA,NA,NA,NA
Sauvage,Francois-Clement,NA,NA,NA,NA,NA,NA,NA,NA,NA,NA,NA,NA,NA,NA,NA,NA,NA,NA,NA,NA,NA,NA,NA,NA,NA,NA,NA,NA,NA,NA,NA,NA,NA,NA,NA,NA,NA,NA,NA,NA,NA,NA,NA,NA,NA,NA,NA,NA,NA,NA,NA,NA,NA,NA,NA,NA,NA,NA,NA,NA,NA,NA,NA,NA,NA,NA,NA,NA,NA,NA,NA,NA,NA,NA,NA,NA,NA,NA,NA,NA,NA,NA,NA,NA,NA,NA,NA,NA,NA,NA,NA,NA,NA,NA,NA,NA,NA,NA,NA,NA,NA,NA,NA,NA,NA,NA,NA,NA,NA,NA,NA,NA,NA,NA,NA,NA,NA,Non,1836,NA,Oui,Non,Non,Oui,Non,Non,NA,NA,1868,2nd Empire,Non,Oui,Royalistes-Republicains Moderes,"Le Livre Du Centenaire, 1897, Tome 3"
Varin Dit D'ainvelle,Felix,NA,NA,NA,NA,NA,NA,NA,NA,NA,NA,NA,NA,NA,NA,NA,NA,NA,NA,NA,NA,NA,NA,NA,NA,NA,NA,NA,NA,NA,NA,NA,NA,NA,NA,NA,NA,NA,NA,NA,NA,NA,NA,NA,NA,NA,NA,NA,NA,NA,NA,NA,NA,NA,NA,NA,NA,NA,NA,NA,NA,NA,NA,NA,NA,NA,NA,NA,NA,NA,NA,NA,NA,NA,NA,NA,NA,NA,NA,NA,NA,NA,NA,NA,NA,NA,NA,NA,NA,NA,NA,NA,NA,NA,NA,NA,NA,NA,NA,NA,NA,NA,NA,NA,NA,NA,NA,NA,NA,NA,NA,NA,NA,NA,NA,NA,NA,NA,Non,NA,NA,Non,Non,Non,Non,Non,Non,NA,NA,NA,NA,Non,Oui,NA,Annales
Chevalier,Jean-Baptiste,NA,NA,NA,NA,NA,NA,NA,NA,NA,NA,NA,NA,NA,NA,NA,NA,NA,NA,NA,NA,NA,NA,NA,NA,NA,NA,NA,NA,NA,NA,NA,NA,NA,NA,NA,NA,NA,NA,NA,NA,NA,NA,NA,NA,NA,NA,NA,NA,NA,NA,NA,NA,NA,NA,NA,NA,NA,NA,NA,NA,NA,NA,NA,NA,NA,NA,NA,NA,NA,NA,NA,NA,NA,NA,NA,NA,NA,NA,NA,NA,NA,NA,NA,NA,NA,NA,NA,NA,NA,NA,NA,NA,NA,NA,NA,NA,NA,NA,NA,NA,NA,NA,NA,NA,NA,NA,NA,NA,NA,NA,NA,NA,NA,NA,NA,NA,NA,Non,1829,4,Oui,Non,Oui,Non,Non,Non,NA,NA,NA,Monarchie De Juillet,Non,Oui,Liberal,Annales
Reynaud,Jean,NA,NA,NA,NA,NA,NA,NA,NA,NA,NA,NA,NA,NA,NA,NA,NA,NA,NA,NA,NA,NA,NA,NA,NA,NA,NA,NA,NA,NA,NA,NA,NA,NA,NA,NA,NA,NA,NA,NA,NA,NA,NA,NA,NA,NA,NA,NA,NA,NA,NA,NA,NA,NA,NA,NA,NA,NA,NA,NA,NA,NA,NA,NA,NA,NA,NA,NA,NA,NA,NA,NA,NA,NA,NA,NA,NA,NA,NA,NA,NA,NA,NA,NA,NA,NA,NA,NA,NA,NA,NA,NA,NA,NA,NA,NA,NA,NA,NA,NA,NA,NA,NA,NA,NA,NA,NA,NA,NA,NA,NA,NA,NA,NA,NA,NA,NA,NA,Non,1829,NA,Non,Non,Non,Non,Non,Non,NA,NA,NA,NA,Non,Oui,NA,Annales
Grouchy De,Ernest,NA,NA,NA,NA,NA,NA,NA,NA,NA,NA,NA,NA,NA,NA,NA,NA,NA,NA,NA,NA,NA,NA,NA,NA,NA,NA,NA,NA,NA,NA,NA,NA,NA,NA,NA,NA,NA,NA,NA,NA,NA,NA,NA,NA,NA,NA,NA,NA,NA,NA,NA,NA,NA,NA,NA,NA,NA,NA,NA,NA,NA,NA,NA,NA,NA,NA,NA,NA,NA,NA,NA,NA,NA,NA,NA,NA,NA,NA,NA,NA,NA,NA,NA,NA,NA,NA,NA,NA,NA,NA,NA,NA,NA,NA,NA,NA,NA,NA,NA,NA,NA,NA,NA,NA,NA,NA,NA,NA,NA,NA,NA,NA,NA,NA,NA,NA,NA,Non,1828,2,Non,Non,Non,Non,Non,Non,NA,NA,NA,NA,Non,Oui,Bonapartiste,Annales
De Saulces De Freycinetinet,Louis,NA,NA,NA,NA,NA,NA,NA,NA,NA,NA,NA,NA,NA,NA,NA,NA,NA,NA,NA,NA,NA,NA,NA,NA,NA,NA,NA,NA,NA,NA,NA,NA,NA,NA,NA,NA,NA,NA,NA,NA,NA,NA,NA,NA,NA,NA,NA,NA,NA,NA,NA,NA,NA,NA,NA,NA,NA,NA,NA,NA,NA,NA,NA,NA,NA,NA,NA,NA,NA,NA,NA,NA,NA,NA,NA,NA,NA,NA,NA,NA,NA,NA,NA,NA,NA,NA,NA,NA,NA,NA,NA,NA,NA,NA,NA,NA,NA,NA,NA,NA,NA,NA,NA,NA,NA,NA,NA,NA,NA,NA,NA,NA,NA,NA,NA,NA,NA,Non,1852,NA,Oui,Non,Oui,Non,Non,Non,8,8,1870,Troisieme Republique,Non,Oui,Republicains,Annales
Le Play,Pierre-Guillaume-Frederic,NA,NA,NA,NA,NA,NA,NA,NA,NA,NA,NA,NA,NA,NA,NA,NA,NA,NA,NA,NA,NA,NA,NA,NA,NA,NA,NA,NA,NA,NA,NA,NA,NA,NA,NA,NA,NA,NA,NA,NA,NA,NA,NA,NA,NA,NA,NA,NA,NA,NA,NA,NA,NA,NA,NA,NA,NA,NA,NA,NA,NA,NA,NA,NA,NA,NA,NA,NA,NA,NA,NA,NA,NA,NA,NA,NA,NA,NA,NA,NA,NA,NA,NA,NA,NA,NA,NA,NA,NA,NA,NA,NA,NA,NA,NA,NA,NA,NA,NA,NA,NA,NA,NA,NA,NA,NA,NA,NA,NA,NA,NA,NA,NA,NA,NA,NA,NA,Non,NA,NA,Oui,Non,Non,Non,Oui,Non,NA,6,1867,2nd Empire,Non,Oui,Contre-Revolutionnaire,Annales
Varroy,Henri,NA,NA,NA,NA,NA,NA,NA,NA,NA,NA,NA,NA,NA,NA,NA,NA,NA,NA,NA,NA,NA,NA,NA,NA,NA,NA,NA,NA,NA,NA,NA,NA,NA,NA,NA,NA,NA,NA,NA,NA,NA,NA,NA,NA,NA,NA,NA,NA,NA,NA,NA,NA,NA,NA,NA,NA,NA,NA,NA,NA,NA,NA,NA,NA,NA,NA,NA,NA,NA,NA,NA,NA,NA,NA,NA,NA,NA,NA,NA,NA,NA,NA,NA,NA,NA,NA,NA,NA,NA,NA,NA,NA,NA,NA,NA,NA,NA,NA,NA,NA,NA,NA,NA,NA,NA,NA,NA,NA,NA,NA,NA,NA,NA,NA,NA,NA,NA,NA,1849,1,Non,Non,Non,Non,Non,Non,NA,NA,NA,NA,Non,Oui,Republicain,Annales
Tezenas,Antoine,NA,NA,NA,NA,NA,NA,NA,NA,NA,NA,NA,NA,NA,NA,NA,NA,NA,NA,NA,NA,NA,NA,NA,NA,NA,NA,NA,NA,NA,NA,NA,NA,NA,NA,NA,NA,NA,NA,NA,NA,NA,NA,NA,NA,NA,NA,NA,NA,NA,NA,NA,NA,NA,NA,NA,NA,NA,NA,NA,NA,NA,NA,NA,NA,NA,NA,NA,NA,NA,NA,NA,NA,NA,NA,NA,NA,NA,NA,NA,NA,NA,NA,NA,NA,NA,NA,NA,NA,NA,NA,NA,NA,NA,NA,NA,NA,NA,NA,NA,NA,NA,NA,NA,NA,NA,NA,NA,NA,NA,NA,NA,NA,NA,NA,NA,NA,NA,NA,NA,NA,Non,Non,Non,Non,Non,Non,NA,NA,NA,NA,Non,Oui,Gauche Republicaine,Annales
Teisserenc De Bort,Pierre,NA,NA,NA,NA,NA,NA,NA,NA,NA,NA,NA,NA,NA,NA,NA,NA,NA,NA,NA,NA,NA,NA,NA,NA,NA,NA,NA,NA,NA,NA,NA,NA,NA,NA,NA,NA,NA,NA,NA,NA,NA,NA,NA,NA,NA,NA,NA,NA,NA,NA,NA,NA,NA,NA,NA,NA,NA,NA,NA,NA,NA,NA,NA,NA,NA,NA,NA,NA,NA,NA,NA,NA,NA,NA,NA,NA,NA,NA,NA,NA,NA,NA,NA,NA,NA,NA,NA,NA,NA,NA,NA,NA,NA,NA,NA,NA,NA,NA,NA,NA,NA,NA,NA,NA,NA,NA,NA,NA,NA,NA,NA,NA,NA,NA,NA,NA,NA,NA,1835,36,Oui,Oui,Non,Non,Non,Non,NA,NA,NA,NA,Non,Oui,NA,Annales
Taillepied De Bondy,Francois,NA,NA,NA,NA,NA,NA,NA,NA,NA,NA,NA,NA,NA,NA,NA,NA,NA,NA,NA,NA,NA,NA,NA,NA,NA,NA,NA,NA,NA,NA,NA,NA,NA,NA,NA,NA,NA,NA,NA,NA,NA,NA,NA,NA,NA,NA,NA,NA,NA,NA,NA,NA,NA,NA,NA,NA,NA,NA,NA,NA,NA,NA,NA,NA,NA,NA,NA,NA,NA,NA,NA,NA,NA,NA,NA,NA,NA,NA,NA,NA,NA,NA,NA,NA,NA,NA,NA,NA,NA,NA,NA,NA,NA,NA,NA,NA,NA,NA,NA,NA,NA,NA,NA,NA,NA,NA,NA,NA,NA,NA,NA,NA,NA,NA,NA,NA,NA,NA,1826,NA,Non,Non,Non,Non,Non,Non,NA,NA,NA,NA,Non,Oui,Centre Droit,Wikipedia
Meinadier,Pierre,NA,NA,NA,NA,NA,NA,NA,NA,NA,NA,NA,NA,NA,NA,NA,NA,NA,NA,NA,NA,NA,NA,NA,NA,NA,NA,NA,NA,NA,NA,NA,NA,NA,NA,NA,NA,NA,NA,NA,NA,NA,NA,NA,NA,NA,NA,NA,NA,NA,NA,NA,NA,NA,NA,NA,NA,NA,NA,NA,NA,NA,NA,NA,NA,NA,NA,NA,NA,NA,NA,NA,NA,NA,NA,NA,NA,NA,NA,NA,NA,NA,NA,NA,NA,NA,NA,NA,NA,NA,NA,NA,NA,NA,NA,NA,NA,NA,NA,NA,NA,NA,NA,NA,NA,NA,NA,NA,NA,NA,NA,NA,NA,NA,NA,NA,NA,NA,NA,NA,NA,Oui,Non,Oui,Non,Non,Non,NA,NA,NA,NA,Non,Oui,Gauche Republicaine,Dictionnaire Des Parlementaires Francais
Sauvage,Francois-Clement,NA,NA,NA,NA,NA,NA,NA,NA,NA,NA,NA,NA,NA,NA,NA,NA,NA,NA,NA,NA,NA,NA,NA,NA,NA,NA,NA,NA,NA,NA,NA,NA,NA,NA,NA,NA,NA,NA,NA,NA,NA,NA,NA,NA,NA,NA,NA,NA,NA,NA,NA,NA,NA,NA,NA,NA,NA,NA,NA,NA,NA,NA,NA,NA,NA,NA,NA,NA,NA,NA,NA,NA,NA,NA,NA,NA,NA,NA,NA,NA,NA,NA,NA,NA,NA,NA,NA,NA,NA,NA,NA,NA,NA,NA,NA,NA,NA,NA,NA,NA,NA,NA,NA,NA,NA,NA,NA,NA,NA,NA,NA,NA,NA,NA,NA,NA,NA,NA,NA,NA,Oui,Non,Non,Oui,Non,Non,NA,NA,NA,NA,Non,Oui,Royaliste,"Le Livre Du Centenaire, 1897, Tome 3"
Storelu,Lionel,NA,NA,NA,NA,NA,NA,NA,NA,NA,NA,NA,NA,NA,NA,NA,NA,NA,NA,NA,NA,NA,NA,NA,NA,NA,NA,NA,NA,NA,NA,NA,NA,NA,NA,NA,NA,NA,NA,NA,NA,NA,NA,NA,NA,NA,NA,NA,NA,NA,NA,NA,NA,NA,NA,NA,NA,NA,NA,NA,NA,NA,NA,NA,NA,NA,NA,NA,NA,NA,NA,NA,NA,NA,NA,NA,NA,NA,NA,NA,NA,NA,NA,NA,NA,NA,NA,NA,NA,NA,NA,NA,NA,NA,NA,NA,NA,NA,NA,NA,NA,NA,NA,NA,NA,NA,NA,NA,NA,NA,NA,NA,NA,NA,NA,NA,NA,NA,NA,NA,2,Oui,Non,Non,Oui,Non,Non,NA,NA,NA,NA,Non,Oui,Parti Republicain Puis Psd,Annales
Poher,Alain,NA,NA,NA,NA,NA,NA,NA,NA,NA,NA,NA,NA,NA,NA,NA,NA,NA,NA,NA,NA,NA,NA,NA,NA,NA,NA,NA,NA,NA,NA,NA,NA,NA,NA,NA,NA,NA,NA,NA,NA,NA,NA,NA,NA,NA,NA,NA,NA,NA,NA,NA,NA,NA,NA,NA,NA,NA,NA,NA,NA,NA,NA,NA,NA,NA,NA,NA,NA,NA,NA,NA,NA,NA,NA,NA,NA,NA,NA,NA,NA,NA,NA,NA,NA,NA,NA,NA,NA,NA,NA,NA,NA,NA,NA,NA,NA,NA,NA,NA,NA,NA,NA,NA,NA,NA,NA,NA,NA,NA,NA,NA,NA,NA,NA,NA,NA,NA,NA,NA,NA,NA,NA,NA,NA,NA,NA,NA,NA,NA,NA,Oui,Non,(President Du Senat),Site Senat
De Wendel,Francois,NA,NA,NA,NA,NA,NA,NA,NA,NA,NA,NA,NA,NA,NA,NA,NA,NA,NA,NA,NA,NA,NA,NA,NA,NA,NA,NA,NA,NA,NA,NA,NA,NA,NA,NA,NA,NA,NA,NA,NA,NA,NA,NA,NA,NA,NA,NA,NA,NA,NA,NA,NA,NA,NA,NA,NA,NA,NA,NA,NA,NA,NA,NA,NA,NA,NA,NA,NA,NA,NA,NA,NA,NA,NA,NA,NA,NA,NA,NA,NA,NA,NA,NA,NA,NA,NA,NA,NA,NA,NA,NA,NA,NA,NA,NA,NA,NA,NA,NA,NA,NA,NA,NA,NA,NA,NA,NA,NA,NA,NA,NA,NA,NA,NA,NA,NA,NA,NA,NA,11,Non,Non,Non,Non,Non,Non,NA,NA,NA,NA,Oui,Non,NA,Annales
